%!PS-Adobe-2.0 EPSF-2.0
%%BoundingBox:  0 0 567 543
%%Title: /home/tav/cern/projects/PilotBlade/forApproval/9PBHitCluDy_344132868.eps: 0_1
%%Creator: ROOT Version 6.04/16
%%CreationDate: Sun May 14 14:36:18 2017
%%DocumentNeededResources: ProcSet (FontSetInit)
%%EndComments
%%BeginProlog
80 dict begin
/s {stroke} def /l {lineto} def /m {moveto} def /t {translate} def
/r {rotate} def /rl {roll}  def /R {repeat} def
/d {rlineto} def /rm {rmoveto} def /gr {grestore} def /f {eofill} def
/c {setrgbcolor} def /black {0 setgray} def /sd {setdash} def
/cl {closepath} def /sf {scalefont setfont} def /lw {setlinewidth} def
/box {m dup 0 exch d exch 0 d 0 exch neg d cl} def
/NC{systemdict begin initclip end}def/C{NC box clip newpath}def
/bl {box s} def /bf {gsave box gsave f grestore 1 lw [] 0 sd s grestore} def /Y { 0 exch d} def /X { 0 d} def 
/K {{pop pop 0 moveto} exch kshow} bind def
/ita {/ang 15 def gsave [1 0 ang dup sin exch cos div 1 0 0] concat} def 
/mp {newpath /y exch def /x exch def} def
/side {[w .77 mul w .23 mul] .385 w mul sd w 0 l currentpoint t -144 r} def
/mr {mp x y w2 0 360 arc} def /m24 {mr s} def /m20 {mr f} def
/mb {mp x y w2 add m w2 neg 0 d 0 w neg d w 0 d 0 w d cl} def
/mt {mp x y w2 add m w2 neg w neg d w 0 d cl} def
/m21 {mb f} def /m25 {mb s} def /m22 {mt f} def /m26{mt s} def
/m23 {mp x y w2 sub m w2 w d w neg 0 d cl f} def
/m27 {mp x y w2 add m w3 neg w2 neg d w3 w2 neg d w3 w2 d cl s} def
/m28 {mp x w2 sub y w2 sub w3 add m w3 0 d  0 w3 neg d w3 0 d 0 w3 d w3 0 d  0 w3 d w3 neg 0 d 0 w3 d w3 neg 0 d 0 w3 neg d w3 neg 0 d cl s } def
/m29 {mp gsave x w2 sub y w2 add w3 sub m currentpoint t 4 {side} repeat cl fill gr} def
/m30 {mp gsave x w2 sub y w2 add w3 sub m currentpoint t 4 {side} repeat cl s gr} def
/m31 {mp x y w2 sub m 0 w d x w2 sub y m w 0 d x w2 sub y w2 add m w w neg d x w2 sub y w2 sub m w w d s} def
/m32 {mp x y w2 sub m w2 w d w neg 0 d cl s} def
/m33 {mp x y w2 add m w3 neg w2 neg d w3 w2 neg d w3 w2 d cl f} def
/m34 {mp x w2 sub y w2 sub w3 add m w3 0 d  0 w3 neg d w3 0 d 0 w3 d w3 0 d  0 w3 d w3 neg 0 d 0 w3 d w3 neg 0 d 0 w3 neg d w3 neg 0 d cl f } def
/m2 {mp x y w2 sub m 0 w d x w2 sub y m w 0 d s} def
/m5 {mp x w2 sub y w2 sub m w w d x w2 sub y w2 add m w w neg d s} def
%%IncludeResource: ProcSet (FontSetInit)
%%IncludeResource: font Times-Roman
%%IncludeResource: font Times-Italic
%%IncludeResource: font Times-Bold
%%IncludeResource: font Times-BoldItalic
%%IncludeResource: font Helvetica
%%IncludeResource: font Helvetica-Oblique
%%IncludeResource: font Helvetica-Bold
%%IncludeResource: font Helvetica-BoldOblique
%%IncludeResource: font Courier
%%IncludeResource: font Courier-Oblique
%%IncludeResource: font Courier-Bold
%%IncludeResource: font Courier-BoldOblique
%%IncludeResource: font Symbol
%%IncludeResource: font ZapfDingbats
/reEncode {exch findfont dup length dict begin {1 index /FID eq  {pop pop} {def} ifelse } forall /Encoding exch def currentdict end dup /FontName get exch definefont pop } def [/Times-Bold /Times-Italic /Times-BoldItalic /Helvetica /Helvetica-Oblique
 /Helvetica-Bold /Helvetica-BoldOblique /Courier /Courier-Oblique /Courier-Bold /Courier-BoldOblique /Times-Roman /AvantGarde-Book /AvantGarde-BookOblique /AvantGarde-Demi /AvantGarde-DemiOblique /Bookman-Demi /Bookman-DemiItalic /Bookman-Light
 /Bookman-LightItalic /Helvetica-Narrow /Helvetica-Narrow-Bold /Helvetica-Narrow-BoldOblique /Helvetica-Narrow-Oblique /NewCenturySchlbk-Roman /NewCenturySchlbk-Bold /NewCenturySchlbk-BoldItalic /NewCenturySchlbk-Italic /Palatino-Bold
 /Palatino-BoldItalic /Palatino-Italic /Palatino-Roman ] {ISOLatin1Encoding reEncode } forall
%%EndProlog
%%BeginSetup
%%EndSetup
newpath  gsave  .25 .25 scale  gsave  0 0 t black[  ] 0 sd 3 lw 1 1 1 c 2268 2173 0 0 bf black 1 1 1 c 1814 1739 227 217 bf black 1814 1739 227 217 bl 1 1 1 c 1814 1739 227 217 bf black 1814 1739 227 217 bl 6 lw 1 1 1 c black 227 217 m 508 X 16 Y 36
 X 32 Y 36 X 40 Y 73 X 89 Y 36 X 48 Y 36 X 113 Y 37 X 469 Y 36 X 113 Y 36 X 242 Y 37 X 525 Y 36 X -485 Y 36 X 25 Y 36 X -186 Y 37 X -154 Y 36 X -355 Y 36 X -202 Y 37 X -153 Y 36 X -24 Y 36 X -97 Y 36 X -56 Y 37 X 7 Y 36 X -7 Y 36 X 7 Y 37 X -7 Y 36 X
 7 Y 36 X -7 Y 363 X s 3 lw 227 217 m 1814 X s
 gsave  2268 2173 0 0 C 1850.58 79.6355 t 0 r /Helvetica findfont 72.0512 sf 0 0 m (y [cm]) show NC gr 
 gsave  2268 2173 0 0 C 1805.07 79.6355 t 0 r /Symbol findfont 72.0512 sf 0 0 m (D) show NC gr  227 269 m -52 Y s 272 243 m -26 Y s 317 243 m -26 Y s 363 243 m -26 Y s 408 269 m -52 Y s 454 243 m -26 Y s 499 243 m -26 Y s 544 243 m -26 Y s 590 269 m
 -52 Y s 635 243 m -26 Y s 680 243 m -26 Y s 726 243 m -26 Y s 771 269 m -52 Y s 816 243 m -26 Y s 862 243 m -26 Y s 907 243 m -26 Y s 952 269 m -52 Y s 998 243 m -26 Y s 1043 243 m -26 Y s 1089 243 m -26 Y s 1134 269 m -52 Y s 1179 243 m -26 Y s
 1225 243 m -26 Y s 1270 243 m -26 Y s 1315 269 m -52 Y s 1361 243 m -26 Y s 1406 243 m -26 Y s 1451 243 m -26 Y s 1497 269 m -52 Y s 1542 243 m -26 Y s 1587 243 m -26 Y s 1633 243 m -26 Y s 1678 269 m -52 Y s 1723 243 m -26 Y s 1769 243 m -26 Y s
 1814 243 m -26 Y s 1860 269 m -52 Y s 1905 243 m -26 Y s 1950 243 m -26 Y s 1996 243 m -26 Y s 2041 269 m -52 Y s 227 269 m -52 Y s
 gsave  2268 2173 0 0 C 197.193 147.895 t 0 r /Helvetica findfont 72.0512 sf 0 0 m (0.1) show NC gr 
 gsave  2268 2173 0 0 C 159.271 147.895 t 0 r /Symbol findfont 72.0512 sf 0 0 m (-) show NC gr 
 gsave  2268 2173 0 0 C 352.672 147.895 t 0 r /Helvetica findfont 72.0512 sf 0 0 m (0.08) show NC gr 
 gsave  2268 2173 0 0 C 314.75 147.895 t 0 r /Symbol findfont 72.0512 sf 0 0 m (-) show NC gr 
 gsave  2268 2173 0 0 C 534.696 147.895 t 0 r /Helvetica findfont 72.0512 sf 0 0 m (0.06) show NC gr 
 gsave  2268 2173 0 0 C 496.774 147.895 t 0 r /Symbol findfont 72.0512 sf 0 0 m (-) show NC gr 
 gsave  2268 2173 0 0 C 716.72 147.895 t 0 r /Helvetica findfont 72.0512 sf 0 0 m (0.04) show NC gr 
 gsave  2268 2173 0 0 C 678.798 147.895 t 0 r /Symbol findfont 72.0512 sf 0 0 m (-) show NC gr 
 gsave  2268 2173 0 0 C 898.744 147.895 t 0 r /Helvetica findfont 72.0512 sf 0 0 m (0.02) show NC gr 
 gsave  2268 2173 0 0 C 860.822 147.895 t 0 r /Symbol findfont 72.0512 sf 0 0 m (-) show NC gr 
 gsave  2268 2173 0 0 C 1114.9 147.895 t 0 r /Helvetica findfont 72.0512 sf 0 0 m (0) show NC gr 
 gsave  2268 2173 0 0 C 1240.04 147.895 t 0 r /Helvetica findfont 72.0512 sf 0 0 m (0.02) show NC gr 
 gsave  2268 2173 0 0 C 1422.06 147.895 t 0 r /Helvetica findfont 72.0512 sf 0 0 m (0.04) show NC gr 
 gsave  2268 2173 0 0 C 1604.09 147.895 t 0 r /Helvetica findfont 72.0512 sf 0 0 m (0.06) show NC gr 
 gsave  2268 2173 0 0 C 1786.11 147.895 t 0 r /Helvetica findfont 72.0512 sf 0 0 m (0.08) show NC gr 
 gsave  2268 2173 0 0 C 1994.68 147.895 t 0 r /Helvetica findfont 72.0512 sf 0 0 m (0.1) show NC gr  227 217 m 1739 Y s
 gsave  2268 2173 0 0 C 83.4277 1797.49 t 90 r /Helvetica findfont 72.0512 sf 0 0 m (Yield) show NC gr  281 370 m -54 X s 254 410 m -27 X s 254 451 m -27 X s 254 491 m -27 X s 281 531 m -54 X s 254 572 m -27 X s 254 612 m -27 X s 254 652 m -27 X s
 281 693 m -54 X s 254 733 m -27 X s 254 773 m -27 X s 254 814 m -27 X s 281 854 m -54 X s 254 895 m -27 X s 254 935 m -27 X s 254 975 m -27 X s 281 1016 m -54 X s 254 1056 m -27 X s 254 1096 m -27 X s 254 1137 m -27 X s 281 1177 m -54 X s 254 1217 m
 -27 X s 254 1258 m -27 X s 254 1298 m -27 X s 281 1339 m -54 X s 254 1379 m -27 X s 254 1419 m -27 X s 254 1460 m -27 X s 281 1500 m -54 X s 254 1540 m -27 X s 254 1581 m -27 X s 254 1621 m -27 X s 281 1662 m -54 X s 254 1702 m -27 X s 254 1742 m
 -27 X s 254 1783 m -27 X s 281 1823 m -54 X s 281 370 m -54 X s 254 329 m -27 X s 254 289 m -27 X s 254 249 m -27 X s 281 1823 m -54 X s 254 1863 m -27 X s 254 1904 m -27 X s 254 1944 m -27 X s
 gsave  2268 2173 0 0 C 132.726 345.087 t 0 r /Helvetica findfont 72.0512 sf 0 0 m (20) show NC gr 
 gsave  2268 2173 0 0 C 132.726 508.151 t 0 r /Helvetica findfont 72.0512 sf 0 0 m (40) show NC gr 
 gsave  2268 2173 0 0 C 132.726 667.422 t 0 r /Helvetica findfont 72.0512 sf 0 0 m (60) show NC gr 
 gsave  2268 2173 0 0 C 132.726 830.485 t 0 r /Helvetica findfont 72.0512 sf 0 0 m (80) show NC gr 
 gsave  2268 2173 0 0 C 94.8042 989.756 t 0 r /Helvetica findfont 72.0512 sf 0 0 m (100) show NC gr 
 gsave  2268 2173 0 0 C 94.8042 1152.82 t 0 r /Helvetica findfont 72.0512 sf 0 0 m (120) show NC gr 
 gsave  2268 2173 0 0 C 94.8042 1312.09 t 0 r /Helvetica findfont 72.0512 sf 0 0 m (140) show NC gr 
 gsave  2268 2173 0 0 C 94.8042 1475.15 t 0 r /Helvetica findfont 72.0512 sf 0 0 m (160) show NC gr 
 gsave  2268 2173 0 0 C 94.8042 1638.22 t 0 r /Helvetica findfont 72.0512 sf 0 0 m (180) show NC gr 
 gsave  2268 2173 0 0 C 94.8042 1797.49 t 0 r /Helvetica findfont 72.0512 sf 0 0 m (200) show NC gr 
 gsave  2268 2173 0 0 C 496.774 1975.72 t 0 r /Helvetica-Oblique findfont 79.6355 sf 0 0 m (Preliminary 2016) show NC gr 
 gsave  2268 2173 0 0 C 223.738 1975.72 t 0 r /Helvetica-Bold findfont 102.389 sf 0 0 m (CMS ) show NC gr  1 1 1 c black
 gsave  2268 2173 0 0 C 409.554 2085.69 t 0 r /Helvetica findfont 49.2982 sf 0 0 m (Expected hit to nearest cluster distance in BmO_D3_BLD10_PNL1) show NC gr  1 1 1 c black
 gsave  2268 2173 0 0 C 1448.61 1797.49 t 0 r /Helvetica findfont 68.259 sf 0 0 m (Mean = +0.0006) show NC gr 
 gsave  2268 2173 0 0 C 1478.95 1714.06 t 0 r /Helvetica findfont 68.259 sf 0 0 m (RMS = 0.0140) show NC gr 
 gr  gr showpage
end
%%EOF
