%!PS-Adobe-2.0 EPSF-2.0
%%BoundingBox:  0 0 567 543
%%Title: /home/tav/cern/projects/PilotBlade/forApproval/4TimingX.eps: c1
%%Creator: ROOT Version 6.04/16
%%CreationDate: Thu May 11 14:35:14 2017
%%DocumentNeededResources: ProcSet (FontSetInit)
%%EndComments
%%BeginProlog
80 dict begin
/s {stroke} def /l {lineto} def /m {moveto} def /t {translate} def
/r {rotate} def /rl {roll}  def /R {repeat} def
/d {rlineto} def /rm {rmoveto} def /gr {grestore} def /f {eofill} def
/c {setrgbcolor} def /black {0 setgray} def /sd {setdash} def
/cl {closepath} def /sf {scalefont setfont} def /lw {setlinewidth} def
/box {m dup 0 exch d exch 0 d 0 exch neg d cl} def
/NC{systemdict begin initclip end}def/C{NC box clip newpath}def
/bl {box s} def /bf {gsave box gsave f grestore 1 lw [] 0 sd s grestore} def /Y { 0 exch d} def /X { 0 d} def 
/K {{pop pop 0 moveto} exch kshow} bind def
/ita {/ang 15 def gsave [1 0 ang dup sin exch cos div 1 0 0] concat} def 
/mp {newpath /y exch def /x exch def} def
/side {[w .77 mul w .23 mul] .385 w mul sd w 0 l currentpoint t -144 r} def
/mr {mp x y w2 0 360 arc} def /m24 {mr s} def /m20 {mr f} def
/mb {mp x y w2 add m w2 neg 0 d 0 w neg d w 0 d 0 w d cl} def
/mt {mp x y w2 add m w2 neg w neg d w 0 d cl} def
/m21 {mb f} def /m25 {mb s} def /m22 {mt f} def /m26{mt s} def
/m23 {mp x y w2 sub m w2 w d w neg 0 d cl f} def
/m27 {mp x y w2 add m w3 neg w2 neg d w3 w2 neg d w3 w2 d cl s} def
/m28 {mp x w2 sub y w2 sub w3 add m w3 0 d  0 w3 neg d w3 0 d 0 w3 d w3 0 d  0 w3 d w3 neg 0 d 0 w3 d w3 neg 0 d 0 w3 neg d w3 neg 0 d cl s } def
/m29 {mp gsave x w2 sub y w2 add w3 sub m currentpoint t 4 {side} repeat cl fill gr} def
/m30 {mp gsave x w2 sub y w2 add w3 sub m currentpoint t 4 {side} repeat cl s gr} def
/m31 {mp x y w2 sub m 0 w d x w2 sub y m w 0 d x w2 sub y w2 add m w w neg d x w2 sub y w2 sub m w w d s} def
/m32 {mp x y w2 sub m w2 w d w neg 0 d cl s} def
/m33 {mp x y w2 add m w3 neg w2 neg d w3 w2 neg d w3 w2 d cl f} def
/m34 {mp x w2 sub y w2 sub w3 add m w3 0 d  0 w3 neg d w3 0 d 0 w3 d w3 0 d  0 w3 d w3 neg 0 d 0 w3 d w3 neg 0 d 0 w3 neg d w3 neg 0 d cl f } def
/m2 {mp x y w2 sub m 0 w d x w2 sub y m w 0 d s} def
/m5 {mp x w2 sub y w2 sub m w w d x w2 sub y w2 add m w w neg d s} def
%%IncludeResource: ProcSet (FontSetInit)
%%IncludeResource: font Times-Roman
%%IncludeResource: font Times-Italic
%%IncludeResource: font Times-Bold
%%IncludeResource: font Times-BoldItalic
%%IncludeResource: font Helvetica
%%IncludeResource: font Helvetica-Oblique
%%IncludeResource: font Helvetica-Bold
%%IncludeResource: font Helvetica-BoldOblique
%%IncludeResource: font Courier
%%IncludeResource: font Courier-Oblique
%%IncludeResource: font Courier-Bold
%%IncludeResource: font Courier-BoldOblique
%%IncludeResource: font Symbol
%%IncludeResource: font ZapfDingbats
/reEncode {exch findfont dup length dict begin {1 index /FID eq  {pop pop} {def} ifelse } forall /Encoding exch def currentdict end dup /FontName get exch definefont pop } def [/Times-Bold /Times-Italic /Times-BoldItalic /Helvetica /Helvetica-Oblique
 /Helvetica-Bold /Helvetica-BoldOblique /Courier /Courier-Oblique /Courier-Bold /Courier-BoldOblique /Times-Roman /AvantGarde-Book /AvantGarde-BookOblique /AvantGarde-Demi /AvantGarde-DemiOblique /Bookman-Demi /Bookman-DemiItalic /Bookman-Light
 /Bookman-LightItalic /Helvetica-Narrow /Helvetica-Narrow-Bold /Helvetica-Narrow-BoldOblique /Helvetica-Narrow-Oblique /NewCenturySchlbk-Roman /NewCenturySchlbk-Bold /NewCenturySchlbk-BoldItalic /NewCenturySchlbk-Italic /Palatino-Bold
 /Palatino-BoldItalic /Palatino-Italic /Palatino-Roman ] {ISOLatin1Encoding reEncode } forall
%%EndProlog
%%BeginSetup
%%EndSetup
newpath  gsave  .25 .25 scale  gsave  0 0 t black[  ] 0 sd 3 lw 1 1 1 c 2268 2173 0 0 bf black 1 1 1 c 1814 1739 227 217 bf black 1814 1739 227 217 bl 1 1 1 c 1814 1739 227 217 bf black 1814 1739 227 217 bl 1 1 1 c black 227 230 m 19 X 25 Y 20 X -38
 Y 20 X 50 Y 39 X 38 Y 20 X -13 Y 20 X 25 Y 20 X -37 Y 19 X 50 Y 20 X -13 Y 39 X -25 Y 20 X 100 Y 20 X 50 Y 20 X -87 Y 19 X -13 Y 40 X -37 Y 19 X 75 Y 20 X -25 Y 20 X 150 Y 20 X -125 Y 19 X 50 Y 20 X 12 Y 20 X -12 Y 19 X 25 Y 20 X 162 Y 20 X -37 Y 20
 X -125 Y 19 X 112 Y 20 X -25 Y 20 X 13 Y 20 X -25 Y 19 X 37 Y 20 X -137 Y 20 X 125 Y 39 X 37 Y 20 X -37 Y 20 X -13 Y 19 X 100 Y 20 X 101 Y 20 X 37 Y 19 X -50 Y 20 X -50 Y 20 X -63 Y 20 X -62 Y 19 X -63 Y 20 X 75 Y 20 X 25 Y 19 X -187 Y 20 X 25 Y 20
 X 100 Y 20 X 12 Y 19 X -12 Y 20 X -138 Y 39 X 63 Y 20 X -38 Y 20 X 75 Y 20 X -137 Y 19 X 25 Y 20 X -63 Y 40 X 25 Y 19 X -37 Y 40 X 37 Y 19 X -25 Y 40 X -87 Y 20 X 162 Y 19 X -125 Y 40 X 13 Y 19 X -50 Y 20 X 37 Y 20 X -12 Y 20 X -25 Y 39 X 12 Y 20 X
 -25 Y 19 X 13 Y 20 X -13 Y 158 X s 227 217 m 1814 X s
 gsave  2268 2173 0 0 C 1850.58 79.6355 t 0 r /Helvetica findfont 72.0512 sf 0 0 m (x [cm]) show NC gr 
 gsave  2268 2173 0 0 C 1805.07 79.6355 t 0 r /Symbol findfont 72.0512 sf 0 0 m (D) show NC gr  335 269 m -52 Y s 389 243 m -26 Y s 442 243 m -26 Y s 495 243 m -26 Y s 549 243 m -26 Y s 602 269 m -52 Y s 655 243 m -26 Y s 709 243 m -26 Y s 762 243 m
 -26 Y s 815 243 m -26 Y s 868 269 m -52 Y s 922 243 m -26 Y s 975 243 m -26 Y s 1028 243 m -26 Y s 1082 243 m -26 Y s 1135 269 m -52 Y s 1188 243 m -26 Y s 1242 243 m -26 Y s 1295 243 m -26 Y s 1348 243 m -26 Y s 1401 269 m -52 Y s 1455 243 m -26 Y
 s 1508 243 m -26 Y s 1561 243 m -26 Y s 1615 243 m -26 Y s 1668 269 m -52 Y s 1721 243 m -26 Y s 1774 243 m -26 Y s 1828 243 m -26 Y s 1881 243 m -26 Y s 1934 269 m -52 Y s 335 269 m -52 Y s 282 243 m -26 Y s 229 243 m -26 Y s 1934 269 m -52 Y s
 1988 243 m -26 Y s 2041 243 m -26 Y s
 gsave  2268 2173 0 0 C 303.373 147.895 t 0 r /Helvetica findfont 72.0512 sf 0 0 m (1.5) show NC gr 
 gsave  2268 2173 0 0 C 261.66 147.895 t 0 r /Symbol findfont 72.0512 sf 0 0 m (-) show NC gr 
 gsave  2268 2173 0 0 C 602.955 147.895 t 0 r /Helvetica findfont 72.0512 sf 0 0 m (1) show NC gr 
 gsave  2268 2173 0 0 C 565.033 147.895 t 0 r /Symbol findfont 72.0512 sf 0 0 m (-) show NC gr 
 gsave  2268 2173 0 0 C 838.069 147.895 t 0 r /Helvetica findfont 72.0512 sf 0 0 m (0.5) show NC gr 
 gsave  2268 2173 0 0 C 796.355 147.895 t 0 r /Symbol findfont 72.0512 sf 0 0 m (-) show NC gr 
 gsave  2268 2173 0 0 C 1114.9 147.895 t 0 r /Helvetica findfont 72.0512 sf 0 0 m (0) show NC gr 
 gsave  2268 2173 0 0 C 1350.01 147.895 t 0 r /Helvetica findfont 72.0512 sf 0 0 m (0.5) show NC gr 
 gsave  2268 2173 0 0 C 1649.59 147.895 t 0 r /Helvetica findfont 72.0512 sf 0 0 m (1) show NC gr 
 gsave  2268 2173 0 0 C 1884.71 147.895 t 0 r /Helvetica findfont 72.0512 sf 0 0 m (1.5) show NC gr  227 217 m 1739 Y s
 gsave  2268 2173 0 0 C 125.142 1797.49 t 90 r /Helvetica findfont 72.0512 sf 0 0 m (Yield) show NC gr  281 217 m -54 X s 254 280 m -27 X s 254 342 m -27 X s 254 405 m -27 X s 281 467 m -54 X s 254 530 m -27 X s 254 592 m -27 X s 254 655 m -27 X s
 281 718 m -54 X s 254 780 m -27 X s 254 843 m -27 X s 254 905 m -27 X s 281 968 m -54 X s 254 1030 m -27 X s 254 1093 m -27 X s 254 1155 m -27 X s 281 1218 m -54 X s 254 1280 m -27 X s 254 1343 m -27 X s 254 1405 m -27 X s 281 1468 m -54 X s 254
 1530 m -27 X s 254 1593 m -27 X s 254 1655 m -27 X s 281 1718 m -54 X s 281 1718 m -54 X s 254 1781 m -27 X s 254 1843 m -27 X s 254 1906 m -27 X s
 gsave  2268 2173 0 0 C 174.44 193.401 t 0 r /Helvetica findfont 72.0512 sf 0 0 m (0) show NC gr 
 gsave  2268 2173 0 0 C 132.726 443.684 t 0 r /Helvetica findfont 72.0512 sf 0 0 m (20) show NC gr 
 gsave  2268 2173 0 0 C 132.726 693.967 t 0 r /Helvetica findfont 72.0512 sf 0 0 m (40) show NC gr 
 gsave  2268 2173 0 0 C 132.726 944.25 t 0 r /Helvetica findfont 72.0512 sf 0 0 m (60) show NC gr 
 gsave  2268 2173 0 0 C 132.726 1194.53 t 0 r /Helvetica findfont 72.0512 sf 0 0 m (80) show NC gr 
 gsave  2268 2173 0 0 C 94.8042 1444.82 t 0 r /Helvetica findfont 72.0512 sf 0 0 m (100) show NC gr 
 gsave  2268 2173 0 0 C 94.8042 1695.1 t 0 r /Helvetica findfont 72.0512 sf 0 0 m (120) show NC gr  1 0 0 c 1 1 1 c black 1 0 0 c 227 217 m 19 X 25 Y 20 X -25 Y 20 X 13 Y 59 X 12 Y 20 X -12 Y 20 X -13 Y 19 X 13 Y 20 X -13 Y 59 X 13 Y 20 X -13 Y 20 X
 13 Y 39 X -13 Y 20 X 13 Y 59 X -13 Y 20 X 13 Y 19 X 12 Y 20 X -25 Y 20 X 25 Y 19 X -25 Y 20 X 25 Y 40 X -12 Y 19 X -13 Y 40 X 25 Y 20 X 13 Y 19 X -25 Y 20 X 12 Y 20 X -25 Y 98 X 25 Y 20 X 50 Y 20 X -25 Y 19 X 125 Y 20 X 1063 Y 20 X -387 Y 20 X -763
 Y 19 X -88 Y 868 X s 0 1 0 c 1 1 1 c black 0 1 0 c 227 217 m 79 X 25 Y 19 X -25 Y 40 X 13 Y 20 X -13 Y 39 X 13 Y 99 X -13 Y 19 X 25 Y 20 X -12 Y 20 X 12 Y 19 X -25 Y 20 X 13 Y 59 X 50 Y 20 X -25 Y 20 X -13 Y 39 X -12 Y 20 X 12 Y 39 X 13 Y 20 X -25 Y
 20 X 12 Y 20 X -12 Y 19 X 37 Y 20 X -12 Y 20 X -13 Y 19 X 13 Y 20 X 12 Y 20 X 13 Y 20 X -25 Y 19 X 25 Y 20 X 25 Y 20 X -63 Y 19 X 63 Y 20 X -38 Y 40 X -37 Y 39 X 75 Y 20 X -75 Y 19 X 12 Y 40 X -12 Y 59 X 37 Y 20 X -37 Y 19 X 25 Y 20 X -25 Y 20 X 37
 Y 20 X -37 Y 19 X 25 Y 20 X -38 Y 40 X 13 Y 19 X -13 Y 20 X 13 Y 99 X -13 Y 19 X 13 Y 20 X -13 Y 99 X 13 Y 19 X -13 Y 59 X 13 Y 20 X -13 Y 158 X s 0 0 1 c 1 1 1 c black 0 0 1 c 227 217 m 19 X 13 Y 20 X -13 Y 40 X 13 Y 19 X -13 Y 20 X 13 Y 20 X -13 Y
 20 X 25 Y 19 X -25 Y 20 X 13 Y 20 X -13 Y 19 X 13 Y 20 X -13 Y 20 X 25 Y 39 X -12 Y 20 X 25 Y 20 X -25 Y 19 X 37 Y 20 X -50 Y 20 X 13 Y 20 X 12 Y 19 X -12 Y 20 X -13 Y 20 X 100 Y 19 X -87 Y 20 X 25 Y 20 X 37 Y 20 X -37 Y 19 X 37 Y 20 X 13 Y 20 X -25
 Y 20 X -25 Y 19 X 37 Y 20 X -12 Y 20 X 37 Y 19 X -75 Y 20 X 25 Y 20 X -25 Y 59 X 38 Y 39 X -25 Y 20 X 12 Y 20 X -25 Y 20 X 38 Y 19 X -38 Y 40 X 25 Y 19 X -25 Y 79 X 13 Y 20 X -25 Y 20 X 12 Y 79 X -12 Y 19 X 12 Y 40 X 13 Y 20 X -38 Y 78 X 25 Y 20 X
 -12 Y 20 X -13 Y 20 X 13 Y 19 X -13 Y 59 X 13 Y 20 X -13 Y 40 X 13 Y 19 X -13 Y 237 X s 1 1 0 c 1 1 1 c black 1 1 0 c 227 217 m 98 X 38 Y 20 X -25 Y 40 X 12 Y 19 X 13 Y 20 X -25 Y 20 X 12 Y 19 X -12 Y 79 X 12 Y 20 X -25 Y 20 X 13 Y 19 X 25 Y 20 X
 -38 Y 20 X 38 Y 20 X -38 Y 19 X 13 Y 20 X 12 Y 20 X -12 Y 39 X -13 Y 20 X 38 Y 20 X 25 Y 19 X -38 Y 20 X 25 Y 20 X -12 Y 20 X 12 Y 19 X -12 Y 20 X -13 Y 20 X 25 Y 19 X -12 Y 20 X -13 Y 20 X 25 Y 20 X -37 Y 19 X 62 Y 40 X 38 Y 19 X -88 Y 20 X 38 Y 20
 X -50 Y 20 X 50 Y 19 X -50 Y 20 X 12 Y 20 X 13 Y 19 X 12 Y 40 X -25 Y 20 X -12 Y 39 X 25 Y 20 X -25 Y 19 X -13 Y 20 X 13 Y 79 X 12 Y 40 X -12 Y 39 X -13 Y 20 X 13 Y 19 X -13 Y 40 X 13 Y 20 X -13 Y 19 X 13 Y 20 X -13 Y 20 X 13 Y 19 X -13 Y 60 X 13 Y
 19 X -13 Y 40 X 13 Y 19 X -13 Y 178 X s 1 0 1 c 1 1 1 c black 1 0 1 c 227 217 m 25 Y 19 X -12 Y 40 X 12 Y 20 X -25 Y 39 X 13 Y 20 X -13 Y 20 X 25 Y 19 X -12 Y 20 X 12 Y 20 X -25 Y 19 X 13 Y 40 X -13 Y 20 X 25 Y 39 X -25 Y 20 X 13 Y 39 X 12 Y 40 X 13
 Y 19 X 12 Y 20 X -25 Y 20 X -25 Y 19 X 38 Y 20 X -13 Y 20 X 25 Y 20 X 38 Y 19 X -13 Y 20 X -12 Y 20 X -25 Y 20 X 62 Y 19 X -37 Y 20 X 12 Y 20 X -12 Y 39 X -50 Y 20 X 25 Y 20 X -38 Y 19 X 88 Y 20 X -13 Y 20 X -50 Y 19 X 75 Y 20 X -50 Y 20 X 38 Y 20 X
 -50 Y 19 X 25 Y 20 X 12 Y 20 X 13 Y 19 X -25 Y 20 X -50 Y 20 X 25 Y 20 X 12 Y 19 X -12 Y 40 X 12 Y 19 X -37 Y 20 X 12 Y 20 X 13 Y 20 X 12 Y 39 X -12 Y 20 X -38 Y 20 X 25 Y 19 X -12 Y 20 X -13 Y 39 X 13 Y 79 X -13 Y 40 X 13 Y 19 X 12 Y 20 X -25 Y 20
 X 13 Y 20 X -13 Y 98 X 13 Y 20 X -13 Y 138 X s 1 1 1 c black
 gsave  2268 2173 0 0 C 398.178 2085.69 t 0 r /Helvetica findfont 49.2982 sf 0 0 m (Expected hit to nearest cluster distance on BmO_D3_BLD10_PNL1) show NC gr 
 gsave  2268 2173 0 0 C 500.566 1975.72 t 0 r /Helvetica-Oblique findfont 79.6355 sf 0 0 m (Preliminary 2016) show NC gr 
 gsave  2268 2173 0 0 C 227.53 1975.72 t 0 r /Helvetica-Bold findfont 102.389 sf 0 0 m (CMS ) show NC gr  1 1 1 c 773 528 338 1323 bf 338 1323 m 773 X s 1111 1323 m 528 Y s 1111 1851 m -773 X s 338 1851 m -528 Y s black
 gsave  2268 2173 0 0 C 356.464 1797.49 t 0 r /Helvetica findfont 60.6747 sf 0 0 m (Timing setups) show NC gr 
 gsave  2268 2173 0 0 C 530.904 1721.64 t 0 r /Helvetica findfont 60.6747 sf 0 0 m (\255100 ns) show NC gr  1 1 1 c 367 1711 m 135 X 53 Y -135 X f 1 1 0 c 6 lw 367 1738 m 135 X s black
 gsave  2268 2173 0 0 C 530.904 1645.8 t 0 r /Helvetica findfont 60.6747 sf 0 0 m (\25575 ns) show NC gr  1 1 1 c 3 lw 367 1636 m 135 X 53 Y -135 X f 6 lw 0 1 0 c 367 1662 m 135 X s black
 gsave  2268 2173 0 0 C 530.904 1573.75 t 0 r /Helvetica findfont 60.6747 sf 0 0 m (\25550 ns) show NC gr  1 1 1 c 3 lw 367 1561 m 135 X 52 Y -135 X f 6 lw black 367 1587 m 135 X s
 gsave  2268 2173 0 0 C 530.904 1497.91 t 0 r /Helvetica findfont 60.6747 sf 0 0 m (\25525 ns) show NC gr  1 1 1 c 3 lw 367 1485 m 135 X 53 Y -135 X f 6 lw 1 0 0 c 367 1512 m 135 X s black
 gsave  2268 2173 0 0 C 530.904 1422.06 t 0 r /Helvetica findfont 60.6747 sf 0 0 m (+0 ns) show NC gr  1 1 1 c 3 lw 367 1410 m 135 X 53 Y -135 X f 6 lw 0 0 1 c 367 1436 m 135 X s black
 gsave  2268 2173 0 0 C 530.904 1346.22 t 0 r /Helvetica findfont 60.6747 sf 0 0 m (+25 ns) show NC gr  1 1 1 c 3 lw 367 1335 m 135 X 52 Y -135 X f 6 lw 0 1 1 c 367 1361 m 135 X s
 gr  gr showpage
end
%%EOF
