%!PS-Adobe-2.0 EPSF-2.0
%%BoundingBox:  0 0 567 493
%%Title: : #sqrt{s}=13 TeV (50ns)
%%Creator: ROOT Version 6.02/10
%%CreationDate: Tue Jul 21 23:39:55 2015
%%EndComments
%%BeginProlog
80 dict begin
/s {stroke} def /l {lineto} def /m {moveto} def /t {translate} def
/r {rotate} def /rl {roll}  def /R {repeat} def
/d {rlineto} def /rm {rmoveto} def /gr {grestore} def /f {eofill} def
/c {setrgbcolor} def /black {0 setgray} def /sd {setdash} def
/cl {closepath} def /sf {scalefont setfont} def /lw {setlinewidth} def
/box {m dup 0 exch d exch 0 d 0 exch neg d cl} def
/NC{systemdict begin initclip end}def/C{NC box clip newpath}def
/bl {box s} def /bf {gsave box gsave f grestore 1 lw [] 0 sd s grestore} def /Y { 0 exch d} def /X { 0 d} def 
/K {{pop pop 0 moveto} exch kshow} bind def
/ita {/ang 15 def gsave [1 0 ang dup sin exch cos div 1 0 0] concat} def 
/mp {newpath /y exch def /x exch def} def
/side {[w .77 mul w .23 mul] .385 w mul sd w 0 l currentpoint t -144 r} def
/mr {mp x y w2 0 360 arc} def /m24 {mr s} def /m20 {mr f} def
/mb {mp x y w2 add m w2 neg 0 d 0 w neg d w 0 d 0 w d cl} def
/mt {mp x y w2 add m w2 neg w neg d w 0 d cl} def
/m21 {mb f} def /m25 {mb s} def /m22 {mt f} def /m26{mt s} def
/m23 {mp x y w2 sub m w2 w d w neg 0 d cl f} def
/m27 {mp x y w2 add m w3 neg w2 neg d w3 w2 neg d w3 w2 d cl s} def
/m28 {mp x w2 sub y w2 sub w3 add m w3 0 d  0 w3 neg d w3 0 d 0 w3 d w3 0 d  0 w3 d w3 neg 0 d 0 w3 d w3 neg 0 d 0 w3 neg d w3 neg 0 d cl s } def
/m29 {mp gsave x w2 sub y w2 add w3 sub m currentpoint t 4 {side} repeat cl fill gr} def
/m30 {mp gsave x w2 sub y w2 add w3 sub m currentpoint t 4 {side} repeat cl s gr} def
/m31 {mp x y w2 sub m 0 w d x w2 sub y m w 0 d x w2 sub y w2 add m w w neg d x w2 sub y w2 sub m w w d s} def
/m32 {mp x y w2 sub m w2 w d w neg 0 d cl s} def
/m33 {mp x y w2 add m w3 neg w2 neg d w3 w2 neg d w3 w2 d cl f} def
/m34 {mp x w2 sub y w2 sub w3 add m w3 0 d  0 w3 neg d w3 0 d 0 w3 d w3 0 d  0 w3 d w3 neg 0 d 0 w3 d w3 neg 0 d 0 w3 neg d w3 neg 0 d cl f } def
/m2 {mp x y w2 sub m 0 w d x w2 sub y m w 0 d s} def
/m5 {mp x w2 sub y w2 sub m w w d x w2 sub y w2 add m w w neg d s} def
/reEncode {exch findfont dup length dict begin {1 index /FID eq  {pop pop} {def} ifelse } forall /Encoding exch def currentdict end dup /FontName get exch definefont pop } def [/Times-Bold /Times-Italic /Times-BoldItalic /Helvetica /Helvetica-Oblique
 /Helvetica-Bold /Helvetica-BoldOblique /Courier /Courier-Oblique /Courier-Bold /Courier-BoldOblique /Times-Roman /AvantGarde-Book /AvantGarde-BookOblique /AvantGarde-Demi /AvantGarde-DemiOblique /Bookman-Demi /Bookman-DemiItalic /Bookman-Light
 /Bookman-LightItalic /Helvetica-Narrow /Helvetica-Narrow-Bold /Helvetica-Narrow-BoldOblique /Helvetica-Narrow-Oblique /NewCenturySchlbk-Roman /NewCenturySchlbk-Bold /NewCenturySchlbk-BoldItalic /NewCenturySchlbk-Italic /Palatino-Bold
 /Palatino-BoldItalic /Palatino-Italic /Palatino-Roman ] {ISOLatin1Encoding reEncode } forall
%%EndProlog
%%BeginSetup
%%EndSetup
newpath  gsave  .25 .25 scale  gsave  0 0 t black[  ] 0 sd 3 lw 1 1 1 c 2268 1972 0 0 bf black 1 1 1 c 1643 1643 230 197 bf black 1643 1643 230 197 bl 1 1 1 c 1643 1643 230 197 bf black 1643 1643 230 197 bl 1 1 1 c 0 1 0.8 c 23 41 230 197 bf 23 41
 253 197 bf 23 41 276 197 bf 22 41 299 197 bf 23 41 321 197 bf 0 1 0.52 c 23 41 344 197 bf 23 41 367 197 bf 23 41 390 197 bf 22 41 413 197 bf 23 41 435 197 bf 23 41 458 197 bf 23 41 481 197 bf 0 1 0.333333 c 23 41 504 197 bf 23 41 527 197 bf 22 41
 550 197 bf 23 41 572 197 bf 0 1 0.0533333 c 23 41 595 197 bf 23 41 618 197 bf 23 41 641 197 bf 0.133333 1 0 c 23 41 664 197 bf 0.413333 1 0 c 22 41 687 197 bf 23 41 709 197 bf 23 41 732 197 bf 0.6 1 0 c 23 41 755 197 bf 23 41 778 197 bf 0.88 1 0 c
 22 41 801 197 bf 23 41 823 197 bf 23 41 846 197 bf 1 0.933333 0 c 23 41 869 197 bf 23 41 892 197 bf 23 41 915 197 bf 22 41 938 197 bf 23 41 1143 197 bf 0.88 1 0 c 23 41 1166 197 bf 22 41 1189 197 bf 23 41 1211 197 bf 0.6 1 0 c 23 41 1234 197 bf 23
 41 1257 197 bf 0.413333 1 0 c 23 41 1280 197 bf 23 41 1303 197 bf 22 41 1326 197 bf 0.133333 1 0 c 23 41 1348 197 bf 23 41 1371 197 bf 0 1 0.0533333 c 23 41 1394 197 bf 23 41 1417 197 bf 0 1 0.333333 c 23 41 1440 197 bf 22 41 1463 197 bf 23 41 1485
 197 bf 23 41 1508 197 bf 0 1 0.52 c 23 41 1531 197 bf 23 41 1554 197 bf 22 41 1577 197 bf 23 41 1599 197 bf 23 41 1622 197 bf 23 41 1645 197 bf 23 41 1668 197 bf 23 41 1691 197 bf 0 1 0.8 c 22 41 1714 197 bf 23 41 1736 197 bf 23 41 1759 197 bf 23 41
 1782 197 bf 23 41 1805 197 bf 23 41 1828 197 bf 22 41 1851 197 bf 0 1 0.52 c 23 41 230 238 bf 0 1 0.8 c 23 41 253 238 bf 23 41 276 238 bf 0 1 0.52 c 22 41 299 238 bf 23 41 321 238 bf 23 41 344 238 bf 23 41 367 238 bf 23 41 390 238 bf 0 1 0.333333 c
 22 41 413 238 bf 0 1 0.52 c 23 41 435 238 bf 0 1 0.333333 c 23 41 458 238 bf 23 41 481 238 bf 23 41 504 238 bf 23 41 527 238 bf 0 1 0.0533333 c 22 41 550 238 bf 23 41 572 238 bf 0.133333 1 0 c 23 41 595 238 bf 23 41 618 238 bf 23 41 641 238 bf
 0.413333 1 0 c 23 41 664 238 bf 22 41 687 238 bf 0.6 1 0 c 23 41 709 238 bf 0.88 1 0 c 23 41 732 238 bf 23 41 755 238 bf 1 0.933333 0 c 23 41 778 238 bf 22 41 801 238 bf 1 0.653333 0 c 23 41 823 238 bf 23 41 846 238 bf 23 41 869 238 bf 1 0.466667 0
 c 23 41 892 238 bf 23 41 915 238 bf 22 41 938 238 bf 1 0.653333 0 c 23 41 1143 238 bf 23 41 1166 238 bf 22 41 1189 238 bf 1 0.933333 0 c 23 41 1211 238 bf 23 41 1234 238 bf 0.88 1 0 c 23 41 1257 238 bf 23 41 1280 238 bf 0.6 1 0 c 23 41 1303 238 bf
 0.413333 1 0 c 22 41 1326 238 bf 23 41 1348 238 bf 0.133333 1 0 c 23 41 1371 238 bf 23 41 1394 238 bf 23 41 1417 238 bf 0 1 0.0533333 c 23 41 1440 238 bf 22 41 1463 238 bf 23 41 1485 238 bf 0 1 0.333333 c 23 41 1508 238 bf 23 41 1531 238 bf 0 1 0.52
 c 23 41 1554 238 bf 22 41 1577 238 bf 23 41 1599 238 bf 23 41 1622 238 bf 23 41 1645 238 bf 23 41 1668 238 bf 23 41 1691 238 bf 0 1 0.8 c 22 41 1714 238 bf 0 1 0.52 c 23 41 1736 238 bf 0 1 0.8 c 23 41 1759 238 bf 23 41 1782 238 bf 23 41 1805 238 bf
 23 41 1828 238 bf 0 1 0.52 c 22 41 1851 238 bf 23 41 230 279 bf 0 1 0.8 c 23 41 253 279 bf 23 41 276 279 bf 22 41 299 279 bf 23 41 321 279 bf 0 1 0.52 c 23 41 344 279 bf 23 41 367 279 bf 23 41 390 279 bf 0 1 0.333333 c 22 41 413 279 bf 0 1 0.52 c 23
 41 435 279 bf 0 1 0.333333 c 23 41 458 279 bf 23 41 481 279 bf 23 41 504 279 bf 23 41 527 279 bf 22 41 550 279 bf 0 1 0.0533333 c 23 41 572 279 bf 0.133333 1 0 c 23 41 595 279 bf 23 41 618 279 bf 23 41 641 279 bf 0.413333 1 0 c 23 41 664 279 bf 22
 41 687 279 bf 0.6 1 0 c 23 41 709 279 bf 0.88 1 0 c 23 41 732 279 bf 23 41 755 279 bf 1 0.933333 0 c 23 41 778 279 bf 22 41 801 279 bf 23 41 823 279 bf 1 0.653333 0 c 23 41 846 279 bf 23 41 869 279 bf 1 0.466667 0 c 23 41 892 279 bf 23 41 915 279 bf
 22 41 938 279 bf 1 0.653333 0 c 23 41 1143 279 bf 23 41 1166 279 bf 22 41 1189 279 bf 1 0.933333 0 c 23 41 1211 279 bf 23 41 1234 279 bf 0.88 1 0 c 23 41 1257 279 bf 0.6 1 0 c 23 41 1280 279 bf 23 41 1303 279 bf 0.413333 1 0 c 22 41 1326 279 bf 23
 41 1348 279 bf 0.133333 1 0 c 23 41 1371 279 bf 23 41 1394 279 bf 0 1 0.0533333 c 23 41 1417 279 bf 23 41 1440 279 bf 22 41 1463 279 bf 23 41 1485 279 bf 0 1 0.333333 c 23 41 1508 279 bf 23 41 1531 279 bf 0 1 0.52 c 23 41 1554 279 bf 22 41 1577 279
 bf 23 41 1599 279 bf 23 41 1622 279 bf 23 41 1645 279 bf 23 41 1668 279 bf 23 41 1691 279 bf 0 1 0.8 c 22 41 1714 279 bf 23 41 1736 279 bf 23 41 1759 279 bf 23 41 1782 279 bf 23 41 1805 279 bf 23 41 1828 279 bf 22 41 1851 279 bf 23 42 230 320 bf 23
 42 253 320 bf 23 42 276 320 bf 22 42 299 320 bf 23 42 321 320 bf 23 42 344 320 bf 23 42 367 320 bf 0 1 0.52 c 23 42 390 320 bf 22 42 413 320 bf 23 42 435 320 bf 23 42 458 320 bf 23 42 481 320 bf 23 42 504 320 bf 23 42 527 320 bf 0 1 0.333333 c 22 42
 550 320 bf 23 42 572 320 bf 0 1 0.0533333 c 23 42 595 320 bf 23 42 618 320 bf 23 42 641 320 bf 23 42 664 320 bf 0.133333 1 0 c 22 42 687 320 bf 23 42 709 320 bf 0.413333 1 0 c 23 42 732 320 bf 23 42 755 320 bf 0.6 1 0 c 23 42 778 320 bf 22 42 801
 320 bf 23 42 823 320 bf 0.88 1 0 c 23 42 846 320 bf 23 42 869 320 bf 23 42 892 320 bf 23 42 915 320 bf 22 42 938 320 bf 23 42 1143 320 bf 23 42 1166 320 bf 22 42 1189 320 bf 0.6 1 0 c 23 42 1211 320 bf 23 42 1234 320 bf 0.413333 1 0 c 23 42 1257 320
 bf 23 42 1280 320 bf 23 42 1303 320 bf 0.133333 1 0 c 22 42 1326 320 bf 23 42 1348 320 bf 0 1 0.0533333 c 23 42 1371 320 bf 23 42 1394 320 bf 23 42 1417 320 bf 0 1 0.333333 c 23 42 1440 320 bf 22 42 1463 320 bf 23 42 1485 320 bf 0 1 0.52 c 23 42
 1508 320 bf 23 42 1531 320 bf 23 42 1554 320 bf 22 42 1577 320 bf 0 1 0.8 c 23 42 1599 320 bf 23 42 1622 320 bf 23 42 1645 320 bf 23 42 1668 320 bf 23 42 1691 320 bf 22 42 1714 320 bf 23 42 1736 320 bf 23 42 1759 320 bf 23 42 1782 320 bf 23 42 1805
 320 bf 23 42 1828 320 bf 22 42 1851 320 bf 23 41 230 362 bf 23 41 253 362 bf 23 41 276 362 bf 22 41 299 362 bf 23 41 321 362 bf 23 41 344 362 bf 23 41 367 362 bf 0 1 0.52 c 23 41 390 362 bf 22 41 413 362 bf 23 41 435 362 bf 23 41 458 362 bf 23 41
 481 362 bf 0 1 0.333333 c 23 41 504 362 bf 23 41 527 362 bf 22 41 550 362 bf 23 41 572 362 bf 0 1 0.0533333 c 23 41 595 362 bf 23 41 618 362 bf 23 41 641 362 bf 0.133333 1 0 c 23 41 664 362 bf 22 41 687 362 bf 0.413333 1 0 c 23 41 709 362 bf 23 41
 732 362 bf 0.6 1 0 c 23 41 755 362 bf 23 41 778 362 bf 22 41 801 362 bf 0.88 1 0 c 23 41 823 362 bf 23 41 846 362 bf 23 41 869 362 bf 1 0.933333 0 c 23 41 892 362 bf 0.88 1 0 c 23 41 915 362 bf 1 0.933333 0 c 22 41 938 362 bf 0.88 1 0 c 23 41 1143
 362 bf 23 41 1166 362 bf 22 41 1189 362 bf 0.6 1 0 c 23 41 1211 362 bf 23 41 1234 362 bf 0.413333 1 0 c 23 41 1257 362 bf 23 41 1280 362 bf 23 41 1303 362 bf 0.133333 1 0 c 22 41 1326 362 bf 23 41 1348 362 bf 0 1 0.0533333 c 23 41 1371 362 bf 23 41
 1394 362 bf 23 41 1417 362 bf 0 1 0.333333 c 23 41 1440 362 bf 22 41 1463 362 bf 23 41 1485 362 bf 0 1 0.52 c 23 41 1508 362 bf 23 41 1531 362 bf 23 41 1554 362 bf 22 41 1577 362 bf 23 41 1599 362 bf 0 1 0.8 c 23 41 1622 362 bf 23 41 1645 362 bf 23
 41 1668 362 bf 23 41 1691 362 bf 22 41 1714 362 bf 23 41 1736 362 bf 23 41 1759 362 bf 23 41 1782 362 bf 23 41 1805 362 bf 0 1 0.986667 c 23 41 1828 362 bf 0 1 0.8 c 22 41 1851 362 bf 0 1 0.52 c 23 41 230 403 bf 0 1 0.8 c 23 41 253 403 bf 23 41 276
 403 bf 22 41 299 403 bf 23 41 321 403 bf 0 1 0.52 c 23 41 344 403 bf 23 41 367 403 bf 23 41 390 403 bf 0 1 0.333333 c 22 41 413 403 bf 0 1 0.52 c 23 41 435 403 bf 0 1 0.333333 c 23 41 458 403 bf 23 41 481 403 bf 23 41 504 403 bf 23 41 527 403 bf 0 1
 0.0533333 c 22 41 550 403 bf 23 41 572 403 bf 0.133333 1 0 c 23 41 595 403 bf 23 41 618 403 bf 23 41 641 403 bf 0.413333 1 0 c 23 41 664 403 bf 22 41 687 403 bf 0.6 1 0 c 23 41 709 403 bf 23 41 732 403 bf 0.88 1 0 c 23 41 755 403 bf 1 0.933333 0 c
 23 41 778 403 bf 22 41 801 403 bf 1 0.653333 0 c 23 41 823 403 bf 23 41 846 403 bf 23 41 869 403 bf 23 41 892 403 bf 1 0.466667 0 c 23 41 915 403 bf 22 41 938 403 bf 1 0.653333 0 c 23 41 1143 403 bf 23 41 1166 403 bf 1 0.933333 0 c 22 41 1189 403 bf
 23 41 1211 403 bf 0.88 1 0 c 23 41 1234 403 bf 23 41 1257 403 bf 23 41 1280 403 bf 23 41 1303 403 bf 0.6 1 0 c 22 41 1326 403 bf 0.413333 1 0 c 23 41 1348 403 bf 0.133333 1 0 c 23 41 1371 403 bf 23 41 1394 403 bf 0 1 0.0533333 c 23 41 1417 403 bf 23
 41 1440 403 bf 22 41 1463 403 bf 23 41 1485 403 bf 0 1 0.333333 c 23 41 1508 403 bf 23 41 1531 403 bf 0 1 0.52 c 23 41 1554 403 bf 22 41 1577 403 bf 23 41 1599 403 bf 23 41 1622 403 bf 23 41 1645 403 bf 23 41 1668 403 bf 23 41 1691 403 bf 22 41 1714
 403 bf 0 1 0.8 c 23 41 1736 403 bf 23 41 1759 403 bf 23 41 1782 403 bf 23 41 1805 403 bf 23 41 1828 403 bf 22 41 1851 403 bf 0 1 0.52 c 23 41 230 444 bf 0 1 0.8 c 23 41 253 444 bf 23 41 276 444 bf 22 41 299 444 bf 0 1 0.52 c 23 41 321 444 bf 23 41
 344 444 bf 23 41 367 444 bf 23 41 390 444 bf 22 41 413 444 bf 23 41 435 444 bf 0 1 0.333333 c 23 41 458 444 bf 23 41 481 444 bf 23 41 504 444 bf 23 41 527 444 bf 0 1 0.0533333 c 22 41 550 444 bf 23 41 572 444 bf 0.133333 1 0 c 23 41 595 444 bf 23 41
 618 444 bf 23 41 641 444 bf 0.413333 1 0 c 23 41 664 444 bf 22 41 687 444 bf 0.6 1 0 c 23 41 709 444 bf 0.88 1 0 c 23 41 732 444 bf 23 41 755 444 bf 1 0.933333 0 c 23 41 778 444 bf 22 41 801 444 bf 1 0.653333 0 c 23 41 823 444 bf 23 41 846 444 bf 23
 41 869 444 bf 1 0.466667 0 c 23 41 892 444 bf 23 41 915 444 bf 22 41 938 444 bf 23 41 1143 444 bf 1 0.653333 0 c 23 41 1166 444 bf 22 41 1189 444 bf 1 0.933333 0 c 23 41 1211 444 bf 0.88 1 0 c 23 41 1234 444 bf 23 41 1257 444 bf 23 41 1280 444 bf
 0.6 1 0 c 23 41 1303 444 bf 22 41 1326 444 bf 0.413333 1 0 c 23 41 1348 444 bf 0.133333 1 0 c 23 41 1371 444 bf 0 1 0.0533333 c 23 41 1394 444 bf 23 41 1417 444 bf 23 41 1440 444 bf 22 41 1463 444 bf 23 41 1485 444 bf 0 1 0.333333 c 23 41 1508 444
 bf 23 41 1531 444 bf 23 41 1554 444 bf 0 1 0.52 c 22 41 1577 444 bf 23 41 1599 444 bf 23 41 1622 444 bf 23 41 1645 444 bf 23 41 1668 444 bf 23 41 1691 444 bf 0 1 0.8 c 22 41 1714 444 bf 23 41 1736 444 bf 23 41 1759 444 bf 23 41 1782 444 bf 23 41
 1805 444 bf 23 41 1828 444 bf 22 41 1851 444 bf 23 41 230 485 bf 23 41 253 485 bf 23 41 276 485 bf 22 41 299 485 bf 23 41 321 485 bf 23 41 344 485 bf 23 41 367 485 bf 0 1 0.52 c 23 41 390 485 bf 22 41 413 485 bf 23 41 435 485 bf 23 41 458 485 bf 23
 41 481 485 bf 23 41 504 485 bf 0 1 0.333333 c 23 41 527 485 bf 22 41 550 485 bf 23 41 572 485 bf 0 1 0.0533333 c 23 41 595 485 bf 23 41 618 485 bf 23 41 641 485 bf 0.133333 1 0 c 23 41 664 485 bf 22 41 687 485 bf 23 41 709 485 bf 0.413333 1 0 c 23
 41 732 485 bf 23 41 755 485 bf 0.6 1 0 c 23 41 778 485 bf 22 41 801 485 bf 0.88 1 0 c 23 41 823 485 bf 23 41 846 485 bf 23 41 869 485 bf 23 41 892 485 bf 23 41 915 485 bf 22 41 938 485 bf 23 41 1143 485 bf 23 41 1166 485 bf 22 41 1189 485 bf 0.6 1 0
 c 23 41 1211 485 bf 23 41 1234 485 bf 23 41 1257 485 bf 0.413333 1 0 c 23 41 1280 485 bf 23 41 1303 485 bf 0.133333 1 0 c 22 41 1326 485 bf 23 41 1348 485 bf 0 1 0.0533333 c 23 41 1371 485 bf 23 41 1394 485 bf 0 1 0.333333 c 23 41 1417 485 bf 23 41
 1440 485 bf 22 41 1463 485 bf 23 41 1485 485 bf 23 41 1508 485 bf 0 1 0.52 c 23 41 1531 485 bf 23 41 1554 485 bf 22 41 1577 485 bf 0 1 0.8 c 23 41 1599 485 bf 23 41 1622 485 bf 23 41 1645 485 bf 23 41 1668 485 bf 23 41 1691 485 bf 22 41 1714 485 bf
 23 41 1736 485 bf 23 41 1759 485 bf 0 1 0.986667 c 23 41 1782 485 bf 0 1 0.8 c 23 41 1805 485 bf 0 1 0.986667 c 23 41 1828 485 bf 0 1 0.8 c 22 41 1851 485 bf 23 41 230 526 bf 23 41 253 526 bf 23 41 276 526 bf 22 41 299 526 bf 23 41 321 526 bf 23 41
 344 526 bf 0 1 0.52 c 23 41 367 526 bf 23 41 390 526 bf 22 41 413 526 bf 23 41 435 526 bf 23 41 458 526 bf 23 41 481 526 bf 23 41 504 526 bf 0 1 0.333333 c 23 41 527 526 bf 22 41 550 526 bf 23 41 572 526 bf 0 1 0.0533333 c 23 41 595 526 bf 23 41 618
 526 bf 23 41 641 526 bf 0.133333 1 0 c 23 41 664 526 bf 22 41 687 526 bf 0.413333 1 0 c 23 41 709 526 bf 23 41 732 526 bf 0.6 1 0 c 23 41 755 526 bf 23 41 778 526 bf 22 41 801 526 bf 0.88 1 0 c 23 41 823 526 bf 23 41 846 526 bf 23 41 869 526 bf 1
 0.933333 0 c 23 41 892 526 bf 23 41 915 526 bf 22 41 938 526 bf 23 41 1143 526 bf 0.88 1 0 c 23 41 1166 526 bf 22 41 1189 526 bf 23 41 1211 526 bf 0.6 1 0 c 23 41 1234 526 bf 23 41 1257 526 bf 0.413333 1 0 c 23 41 1280 526 bf 23 41 1303 526 bf 22 41
 1326 526 bf 0.133333 1 0 c 23 41 1348 526 bf 0 1 0.0533333 c 23 41 1371 526 bf 23 41 1394 526 bf 23 41 1417 526 bf 0 1 0.333333 c 23 41 1440 526 bf 22 41 1463 526 bf 23 41 1485 526 bf 23 41 1508 526 bf 0 1 0.52 c 23 41 1531 526 bf 23 41 1554 526 bf
 22 41 1577 526 bf 23 41 1599 526 bf 23 41 1622 526 bf 0 1 0.8 c 23 41 1645 526 bf 0 1 0.52 c 23 41 1668 526 bf 0 1 0.8 c 23 41 1691 526 bf 22 41 1714 526 bf 23 41 1736 526 bf 23 41 1759 526 bf 23 41 1782 526 bf 23 41 1805 526 bf 23 41 1828 526 bf 22
 41 1851 526 bf 0 1 0.52 c 23 41 230 567 bf 23 41 253 567 bf 0 1 0.8 c 23 41 276 567 bf 0 1 0.52 c 22 41 299 567 bf 23 41 321 567 bf 23 41 344 567 bf 23 41 367 567 bf 0 1 0.333333 c 23 41 390 567 bf 22 41 413 567 bf 23 41 435 567 bf 23 41 458 567 bf
 23 41 481 567 bf 23 41 504 567 bf 0 1 0.0533333 c 23 41 527 567 bf 22 41 550 567 bf 23 41 572 567 bf 0.133333 1 0 c 23 41 595 567 bf 23 41 618 567 bf 23 41 641 567 bf 0.413333 1 0 c 23 41 664 567 bf 22 41 687 567 bf 0.6 1 0 c 23 41 709 567 bf 0.88 1
 0 c 23 41 732 567 bf 23 41 755 567 bf 1 0.933333 0 c 23 41 778 567 bf 22 41 801 567 bf 1 0.653333 0 c 23 41 823 567 bf 23 41 846 567 bf 1 0.466667 0 c 23 41 869 567 bf 23 41 892 567 bf 23 41 915 567 bf 22 41 938 567 bf 23 41 1143 567 bf 1 0.653333 0
 c 23 41 1166 567 bf 22 41 1189 567 bf 23 41 1211 567 bf 1 0.933333 0 c 23 41 1234 567 bf 0.88 1 0 c 23 41 1257 567 bf 23 41 1280 567 bf 23 41 1303 567 bf 0.6 1 0 c 22 41 1326 567 bf 0.413333 1 0 c 23 41 1348 567 bf 0.133333 1 0 c 23 41 1371 567 bf
 23 41 1394 567 bf 23 41 1417 567 bf 0 1 0.0533333 c 23 41 1440 567 bf 22 41 1463 567 bf 23 41 1485 567 bf 0 1 0.333333 c 23 41 1508 567 bf 23 41 1531 567 bf 23 41 1554 567 bf 0 1 0.52 c 22 41 1577 567 bf 23 41 1599 567 bf 23 41 1622 567 bf 23 41
 1645 567 bf 23 41 1668 567 bf 23 41 1691 567 bf 22 41 1714 567 bf 0 1 0.8 c 23 41 1736 567 bf 23 41 1759 567 bf 23 41 1782 567 bf 23 41 1805 567 bf 23 41 1828 567 bf 0 1 0.52 c 22 41 1851 567 bf 23 41 230 608 bf 0 1 0.8 c 23 41 253 608 bf 23 41 276
 608 bf 0 1 0.52 c 22 41 299 608 bf 23 41 321 608 bf 23 41 344 608 bf 23 41 367 608 bf 23 41 390 608 bf 0 1 0.333333 c 22 41 413 608 bf 23 41 435 608 bf 23 41 458 608 bf 23 41 481 608 bf 23 41 504 608 bf 23 41 527 608 bf 0 1 0.0533333 c 22 41 550 608
 bf 23 41 572 608 bf 0.133333 1 0 c 23 41 595 608 bf 23 41 618 608 bf 0.413333 1 0 c 23 41 641 608 bf 23 41 664 608 bf 0.6 1 0 c 22 41 687 608 bf 23 41 709 608 bf 0.88 1 0 c 23 41 732 608 bf 1 0.933333 0 c 23 41 755 608 bf 23 41 778 608 bf 1 0.653333
 0 c 22 41 801 608 bf 23 41 823 608 bf 1 0.466667 0 c 23 41 846 608 bf 23 41 869 608 bf 1 0.186667 0 c 23 41 892 608 bf 1 0.466667 0 c 23 41 915 608 bf 1 0.186667 0 c 22 41 938 608 bf 1 0.466667 0 c 23 41 1143 608 bf 23 41 1166 608 bf 1 0.653333 0 c
 22 41 1189 608 bf 23 41 1211 608 bf 1 0.933333 0 c 23 41 1234 608 bf 23 41 1257 608 bf 0.88 1 0 c 23 41 1280 608 bf 23 41 1303 608 bf 0.6 1 0 c 22 41 1326 608 bf 0.413333 1 0 c 23 41 1348 608 bf 23 41 1371 608 bf 0.133333 1 0 c 23 41 1394 608 bf 23
 41 1417 608 bf 0 1 0.0533333 c 23 41 1440 608 bf 22 41 1463 608 bf 23 41 1485 608 bf 0 1 0.333333 c 23 41 1508 608 bf 23 41 1531 608 bf 23 41 1554 608 bf 22 41 1577 608 bf 0 1 0.52 c 23 41 1599 608 bf 23 41 1622 608 bf 23 41 1645 608 bf 23 41 1668
 608 bf 23 41 1691 608 bf 22 41 1714 608 bf 0 1 0.8 c 23 41 1736 608 bf 23 41 1759 608 bf 23 41 1782 608 bf 23 41 1805 608 bf 23 41 1828 608 bf 0 1 0.52 c 22 41 1851 608 bf 0 1 0.8 c 23 41 230 649 bf 23 41 253 649 bf 23 41 276 649 bf 22 41 299 649 bf
 23 41 321 649 bf 23 41 344 649 bf 0 1 0.52 c 23 41 367 649 bf 23 41 390 649 bf 22 41 413 649 bf 23 41 435 649 bf 23 41 458 649 bf 23 41 481 649 bf 0 1 0.333333 c 23 41 504 649 bf 23 41 527 649 bf 22 41 550 649 bf 0 1 0.0533333 c 23 41 572 649 bf 23
 41 595 649 bf 23 41 618 649 bf 23 41 641 649 bf 0.133333 1 0 c 23 41 664 649 bf 22 41 687 649 bf 0.413333 1 0 c 23 41 709 649 bf 23 41 732 649 bf 0.6 1 0 c 23 41 755 649 bf 0.88 1 0 c 23 41 778 649 bf 22 41 801 649 bf 23 41 823 649 bf 23 41 846 649
 bf 1 0.933333 0 c 23 41 869 649 bf 23 41 892 649 bf 23 41 915 649 bf 22 41 938 649 bf 23 41 1143 649 bf 0.88 1 0 c 23 41 1166 649 bf 22 41 1189 649 bf 0.6 1 0 c 23 41 1211 649 bf 0.88 1 0 c 23 41 1234 649 bf 0.6 1 0 c 23 41 1257 649 bf 0.413333 1 0
 c 23 41 1280 649 bf 23 41 1303 649 bf 0.133333 1 0 c 22 41 1326 649 bf 23 41 1348 649 bf 23 41 1371 649 bf 0 1 0.0533333 c 23 41 1394 649 bf 23 41 1417 649 bf 0 1 0.333333 c 23 41 1440 649 bf 22 41 1463 649 bf 23 41 1485 649 bf 23 41 1508 649 bf 0 1
 0.52 c 23 41 1531 649 bf 23 41 1554 649 bf 22 41 1577 649 bf 23 41 1599 649 bf 23 41 1622 649 bf 0 1 0.8 c 23 41 1645 649 bf 0 1 0.52 c 23 41 1668 649 bf 0 1 0.8 c 23 41 1691 649 bf 22 41 1714 649 bf 23 41 1736 649 bf 23 41 1759 649 bf 23 41 1782
 649 bf 23 41 1805 649 bf 0 1 0.986667 c 23 41 1828 649 bf 0 1 0.8 c 22 41 1851 649 bf 23 41 230 690 bf 23 41 253 690 bf 23 41 276 690 bf 22 41 299 690 bf 23 41 321 690 bf 23 41 344 690 bf 0 1 0.52 c 23 41 367 690 bf 23 41 390 690 bf 22 41 413 690 bf
 23 41 435 690 bf 23 41 458 690 bf 23 41 481 690 bf 0 1 0.333333 c 23 41 504 690 bf 23 41 527 690 bf 22 41 550 690 bf 0 1 0.0533333 c 23 41 572 690 bf 23 41 595 690 bf 0.133333 1 0 c 23 41 618 690 bf 23 41 641 690 bf 23 41 664 690 bf 0.413333 1 0 c
 22 41 687 690 bf 23 41 709 690 bf 0.6 1 0 c 23 41 732 690 bf 23 41 755 690 bf 0.88 1 0 c 23 41 778 690 bf 22 41 801 690 bf 1 0.933333 0 c 23 41 823 690 bf 23 41 846 690 bf 1 0.653333 0 c 23 41 869 690 bf 1 0.933333 0 c 23 41 892 690 bf 23 41 915 690
 bf 1 0.653333 0 c 22 41 938 690 bf 1 0.933333 0 c 23 41 1143 690 bf 23 41 1166 690 bf 22 41 1189 690 bf 0.88 1 0 c 23 41 1211 690 bf 23 41 1234 690 bf 0.6 1 0 c 23 41 1257 690 bf 23 41 1280 690 bf 0.413333 1 0 c 23 41 1303 690 bf 22 41 1326 690 bf
 0.133333 1 0 c 23 41 1348 690 bf 23 41 1371 690 bf 0 1 0.0533333 c 23 41 1394 690 bf 23 41 1417 690 bf 23 41 1440 690 bf 0 1 0.333333 c 22 41 1463 690 bf 23 41 1485 690 bf 23 41 1508 690 bf 23 41 1531 690 bf 0 1 0.52 c 23 41 1554 690 bf 22 41 1577
 690 bf 23 41 1599 690 bf 23 41 1622 690 bf 23 41 1645 690 bf 23 41 1668 690 bf 23 41 1691 690 bf 0 1 0.8 c 22 41 1714 690 bf 23 41 1736 690 bf 23 41 1759 690 bf 23 41 1782 690 bf 23 41 1805 690 bf 23 41 1828 690 bf 22 41 1851 690 bf 0 1 0.52 c 23 41
 230 731 bf 23 41 253 731 bf 23 41 276 731 bf 22 41 299 731 bf 23 41 321 731 bf 23 41 344 731 bf 23 41 367 731 bf 0 1 0.333333 c 23 41 390 731 bf 22 41 413 731 bf 23 41 435 731 bf 23 41 458 731 bf 23 41 481 731 bf 23 41 504 731 bf 0 1 0.0533333 c 23
 41 527 731 bf 22 41 550 731 bf 0.133333 1 0 c 23 41 572 731 bf 23 41 595 731 bf 23 41 618 731 bf 0.413333 1 0 c 23 41 641 731 bf 0.6 1 0 c 23 41 664 731 bf 22 41 687 731 bf 23 41 709 731 bf 0.88 1 0 c 23 41 732 731 bf 1 0.933333 0 c 23 41 755 731 bf
 1 0.653333 0 c 23 41 778 731 bf 22 41 801 731 bf 1 0.466667 0 c 23 41 823 731 bf 23 41 846 731 bf 23 41 869 731 bf 1 0.186667 0 c 23 41 892 731 bf 23 41 915 731 bf 22 41 938 731 bf 23 41 1143 731 bf 1 0.466667 0 c 23 41 1166 731 bf 22 41 1189 731 bf
 1 0.653333 0 c 23 41 1211 731 bf 23 41 1234 731 bf 1 0.933333 0 c 23 41 1257 731 bf 23 41 1280 731 bf 0.88 1 0 c 23 41 1303 731 bf 0 1 0.0533333 c 23 41 1508 731 bf 0 1 0.333333 c 23 41 1531 731 bf 23 41 1554 731 bf 22 41 1577 731 bf 23 41 1599 731
 bf 0 1 0.52 c 23 41 1622 731 bf 23 41 1645 731 bf 0 1 0.333333 c 23 41 1668 731 bf 0 1 0.52 c 23 41 1691 731 bf 22 41 1714 731 bf 0 1 0.8 c 23 41 1736 731 bf 0 1 0.52 c 23 41 1759 731 bf 0 1 0.8 c 23 41 1782 731 bf 23 41 1805 731 bf 23 41 1828 731
 bf 0 1 0.52 c 22 41 1851 731 bf 23 41 230 772 bf 23 41 253 772 bf 23 41 276 772 bf 22 41 299 772 bf 23 41 321 772 bf 23 41 344 772 bf 0 1 0.333333 c 23 41 367 772 bf 23 41 390 772 bf 22 41 413 772 bf 23 41 435 772 bf 23 41 458 772 bf 23 41 481 772
 bf 0 1 0.0533333 c 23 41 504 772 bf 23 41 527 772 bf 22 41 550 772 bf 0.133333 1 0 c 23 41 572 772 bf 0.413333 1 0 c 23 41 595 772 bf 23 41 618 772 bf 23 41 641 772 bf 0.6 1 0 c 23 41 664 772 bf 22 41 687 772 bf 0.88 1 0 c 23 41 709 772 bf 1
 0.933333 0 c 23 41 732 772 bf 23 41 755 772 bf 1 0.653333 0 c 23 41 778 772 bf 1 0.466667 0 c 22 41 801 772 bf 23 41 823 772 bf 23 41 846 772 bf 1 0.186667 0 c 23 41 869 772 bf 23 41 892 772 bf 23 41 915 772 bf 22 41 938 772 bf 23 41 1143 772 bf 23
 41 1166 772 bf 1 0.466667 0 c 22 41 1189 772 bf 1 0.653333 0 c 23 41 1211 772 bf 23 41 1234 772 bf 23 41 1257 772 bf 1 0.933333 0 c 23 41 1280 772 bf 0.88 1 0 c 23 41 1303 772 bf 22 41 1326 772 bf 0.6 1 0 c 23 41 1348 772 bf 0.413333 1 0 c 23 41
 1371 772 bf 23 41 1394 772 bf 0.133333 1 0 c 23 41 1417 772 bf 23 41 1440 772 bf 22 41 1463 772 bf 23 41 1485 772 bf 0 1 0.0533333 c 23 41 1508 772 bf 0 1 0.333333 c 23 41 1531 772 bf 23 41 1554 772 bf 22 41 1577 772 bf 23 41 1599 772 bf 23 41 1622
 772 bf 0 1 0.52 c 23 41 1645 772 bf 0 1 0.333333 c 23 41 1668 772 bf 0 1 0.52 c 23 41 1691 772 bf 22 41 1714 772 bf 23 41 1736 772 bf 23 41 1759 772 bf 23 41 1782 772 bf 23 41 1805 772 bf 23 41 1828 772 bf 22 41 1851 772 bf 23 42 230 813 bf 0 1 0.8
 c 23 42 253 813 bf 23 42 276 813 bf 22 42 299 813 bf 23 42 321 813 bf 0 1 0.52 c 23 42 344 813 bf 23 42 367 813 bf 23 42 390 813 bf 22 42 413 813 bf 23 42 435 813 bf 23 42 458 813 bf 0 1 0.333333 c 23 42 481 813 bf 23 42 504 813 bf 23 42 527 813 bf
 22 42 550 813 bf 0 1 0.0533333 c 23 42 572 813 bf 23 42 595 813 bf 23 42 618 813 bf 0.133333 1 0 c 23 42 641 813 bf 23 42 664 813 bf 0.413333 1 0 c 22 42 687 813 bf 23 42 709 813 bf 0.6 1 0 c 23 42 732 813 bf 0.88 1 0 c 23 42 755 813 bf 23 42 778
 813 bf 1 0.933333 0 c 22 42 801 813 bf 23 42 823 813 bf 23 42 846 813 bf 1 0.653333 0 c 23 42 869 813 bf 23 42 892 813 bf 23 42 915 813 bf 22 42 938 813 bf 23 42 1143 813 bf 1 0.933333 0 c 23 42 1166 813 bf 22 42 1189 813 bf 0.88 1 0 c 23 42 1211
 813 bf 23 42 1234 813 bf 0.6 1 0 c 23 42 1257 813 bf 23 42 1280 813 bf 23 42 1303 813 bf 0.413333 1 0 c 22 42 1326 813 bf 0.133333 1 0 c 23 42 1348 813 bf 23 42 1371 813 bf 23 42 1394 813 bf 0 1 0.0533333 c 23 42 1417 813 bf 23 42 1440 813 bf 22 42
 1463 813 bf 0 1 0.333333 c 23 42 1485 813 bf 23 42 1508 813 bf 0 1 0.52 c 23 42 1531 813 bf 23 42 1554 813 bf 22 42 1577 813 bf 23 42 1599 813 bf 23 42 1622 813 bf 23 42 1645 813 bf 23 42 1668 813 bf 23 42 1691 813 bf 0 1 0.8 c 22 42 1714 813 bf 23
 42 1736 813 bf 23 42 1759 813 bf 23 42 1782 813 bf 23 42 1805 813 bf 23 42 1828 813 bf 22 42 1851 813 bf 0 1 0.52 c 23 41 230 855 bf 23 41 253 855 bf 23 41 276 855 bf 22 41 299 855 bf 23 41 321 855 bf 23 41 344 855 bf 23 41 367 855 bf 0 1 0.333333 c
 23 41 390 855 bf 22 41 413 855 bf 23 41 435 855 bf 23 41 458 855 bf 23 41 481 855 bf 23 41 504 855 bf 0 1 0.0533333 c 23 41 527 855 bf 22 41 550 855 bf 23 41 572 855 bf 0.133333 1 0 c 23 41 595 855 bf 23 41 618 855 bf 23 41 641 855 bf 0.413333 1 0 c
 23 41 664 855 bf 0.6 1 0 c 22 41 687 855 bf 23 41 709 855 bf 23 41 732 855 bf 0.88 1 0 c 23 41 755 855 bf 1 0.933333 0 c 23 41 778 855 bf 22 41 801 855 bf 23 41 823 855 bf 1 0.653333 0 c 23 41 846 855 bf 23 41 869 855 bf 23 41 892 855 bf 23 41 915
 855 bf 22 41 938 855 bf 23 41 1143 855 bf 23 41 1166 855 bf 1 0.933333 0 c 22 41 1189 855 bf 23 41 1211 855 bf 23 41 1234 855 bf 0.88 1 0 c 23 41 1257 855 bf 23 41 1280 855 bf 0.6 1 0 c 23 41 1303 855 bf 22 41 1326 855 bf 0.413333 1 0 c 23 41 1348
 855 bf 23 41 1371 855 bf 0.133333 1 0 c 23 41 1394 855 bf 23 41 1417 855 bf 0 1 0.0533333 c 23 41 1440 855 bf 22 41 1463 855 bf 23 41 1485 855 bf 23 41 1508 855 bf 0 1 0.333333 c 23 41 1531 855 bf 23 41 1554 855 bf 22 41 1577 855 bf 0 1 0.52 c 23 41
 1599 855 bf 23 41 1622 855 bf 23 41 1645 855 bf 23 41 1668 855 bf 23 41 1691 855 bf 22 41 1714 855 bf 23 41 1736 855 bf 23 41 1759 855 bf 23 41 1782 855 bf 0 1 0.8 c 23 41 1805 855 bf 23 41 1828 855 bf 0 1 0.52 c 22 41 1851 855 bf 23 41 230 896 bf
 23 41 253 896 bf 23 41 276 896 bf 22 41 299 896 bf 23 41 321 896 bf 23 41 344 896 bf 0 1 0.333333 c 23 41 367 896 bf 23 41 390 896 bf 22 41 413 896 bf 23 41 435 896 bf 0 1 0.0533333 c 23 41 458 896 bf 23 41 481 896 bf 23 41 504 896 bf 23 41 527 896
 bf 0.133333 1 0 c 22 41 550 896 bf 23 41 572 896 bf 0.413333 1 0 c 23 41 595 896 bf 23 41 618 896 bf 0.6 1 0 c 23 41 641 896 bf 23 41 664 896 bf 0.88 1 0 c 22 41 687 896 bf 1 0.933333 0 c 23 41 709 896 bf 23 41 732 896 bf 1 0.653333 0 c 23 41 755
 896 bf 1 0.466667 0 c 23 41 778 896 bf 22 41 801 896 bf 1 0.186667 0 c 23 41 823 896 bf 23 41 846 896 bf 23 41 869 896 bf 1 0 0 c 23 41 892 896 bf 23 41 915 896 bf 22 41 938 896 bf 23 41 1143 896 bf 1 0.186667 0 c 23 41 1166 896 bf 22 41 1189 896 bf
 1 0.466667 0 c 23 41 1211 896 bf 23 41 1234 896 bf 1 0.653333 0 c 23 41 1257 896 bf 23 41 1280 896 bf 1 0.933333 0 c 23 41 1303 896 bf 0.88 1 0 c 22 41 1326 896 bf 0.6 1 0 c 23 41 1348 896 bf 23 41 1371 896 bf 0.413333 1 0 c 23 41 1394 896 bf 23 41
 1417 896 bf 0.133333 1 0 c 23 41 1440 896 bf 22 41 1463 896 bf 23 41 1485 896 bf 0 1 0.0533333 c 23 41 1508 896 bf 23 41 1531 896 bf 23 41 1554 896 bf 0 1 0.333333 c 22 41 1577 896 bf 23 41 1599 896 bf 23 41 1622 896 bf 23 41 1645 896 bf 23 41 1668
 896 bf 23 41 1691 896 bf 0 1 0.52 c 22 41 1714 896 bf 23 41 1736 896 bf 23 41 1759 896 bf 23 41 1782 896 bf 23 41 1805 896 bf 23 41 1828 896 bf 22 41 1851 896 bf 23 41 230 1101 bf 23 41 253 1101 bf 23 41 276 1101 bf 22 41 299 1101 bf 23 41 321 1101
 bf 23 41 344 1101 bf 23 41 367 1101 bf 0 1 0.333333 c 23 41 390 1101 bf 22 41 413 1101 bf 23 41 435 1101 bf 23 41 458 1101 bf 23 41 481 1101 bf 23 41 504 1101 bf 0 1 0.0533333 c 23 41 527 1101 bf 22 41 550 1101 bf 0.133333 1 0 c 23 41 572 1101 bf 23
 41 595 1101 bf 23 41 618 1101 bf 0.413333 1 0 c 23 41 641 1101 bf 23 41 664 1101 bf 0.6 1 0 c 22 41 687 1101 bf 23 41 709 1101 bf 0.88 1 0 c 23 41 732 1101 bf 1 0.933333 0 c 23 41 755 1101 bf 23 41 778 1101 bf 22 41 801 1101 bf 1 0.653333 0 c 23 41
 823 1101 bf 23 41 846 1101 bf 1 0.466667 0 c 23 41 869 1101 bf 23 41 892 1101 bf 23 41 915 1101 bf 22 41 938 1101 bf 23 41 1143 1101 bf 1 0.653333 0 c 23 41 1166 1101 bf 22 41 1189 1101 bf 1 0.933333 0 c 23 41 1211 1101 bf 23 41 1234 1101 bf 23 41
 1257 1101 bf 0.88 1 0 c 23 41 1280 1101 bf 23 41 1303 1101 bf 0.6 1 0 c 22 41 1326 1101 bf 0.413333 1 0 c 23 41 1348 1101 bf 23 41 1371 1101 bf 0.133333 1 0 c 23 41 1394 1101 bf 23 41 1417 1101 bf 23 41 1440 1101 bf 0 1 0.0533333 c 22 41 1463 1101
 bf 23 41 1485 1101 bf 23 41 1508 1101 bf 0 1 0.333333 c 23 41 1531 1101 bf 23 41 1554 1101 bf 22 41 1577 1101 bf 23 41 1599 1101 bf 23 41 1622 1101 bf 0 1 0.52 c 23 41 1645 1101 bf 23 41 1668 1101 bf 0 1 0.333333 c 23 41 1691 1101 bf 0 1 0.52 c 22
 41 1714 1101 bf 23 41 1736 1101 bf 23 41 1759 1101 bf 23 41 1782 1101 bf 23 41 1805 1101 bf 23 41 1828 1101 bf 22 41 1851 1101 bf 0 1 0.333333 c 23 41 230 1142 bf 0 1 0.52 c 23 41 253 1142 bf 23 41 276 1142 bf 22 41 299 1142 bf 23 41 321 1142 bf 0 1
 0.333333 c 23 41 344 1142 bf 23 41 367 1142 bf 23 41 390 1142 bf 0 1 0.0533333 c 22 41 413 1142 bf 23 41 435 1142 bf 23 41 458 1142 bf 23 41 481 1142 bf 23 41 504 1142 bf 23 41 527 1142 bf 0.133333 1 0 c 22 41 550 1142 bf 0.413333 1 0 c 23 41 572
 1142 bf 23 41 595 1142 bf 23 41 618 1142 bf 0.6 1 0 c 23 41 641 1142 bf 23 41 664 1142 bf 0.88 1 0 c 22 41 687 1142 bf 1 0.933333 0 c 23 41 709 1142 bf 23 41 732 1142 bf 1 0.653333 0 c 23 41 755 1142 bf 1 0.466667 0 c 23 41 778 1142 bf 1 0.186667 0
 c 22 41 801 1142 bf 23 41 823 1142 bf 23 41 846 1142 bf 1 0 0 c 23 41 869 1142 bf 23 41 892 1142 bf 23 41 915 1142 bf 22 41 938 1142 bf 23 41 1143 1142 bf 23 41 1166 1142 bf 1 0.186667 0 c 22 41 1189 1142 bf 1 0.466667 0 c 23 41 1211 1142 bf 23 41
 1234 1142 bf 1 0.653333 0 c 23 41 1257 1142 bf 23 41 1280 1142 bf 1 0.933333 0 c 23 41 1303 1142 bf 0.88 1 0 c 22 41 1326 1142 bf 0.6 1 0 c 23 41 1348 1142 bf 23 41 1371 1142 bf 0.413333 1 0 c 23 41 1394 1142 bf 23 41 1417 1142 bf 0.133333 1 0 c 23
 41 1440 1142 bf 22 41 1463 1142 bf 23 41 1485 1142 bf 0 1 0.0533333 c 23 41 1508 1142 bf 23 41 1531 1142 bf 23 41 1554 1142 bf 0 1 0.333333 c 22 41 1577 1142 bf 23 41 1599 1142 bf 23 41 1622 1142 bf 23 41 1645 1142 bf 23 41 1668 1142 bf 23 41 1691
 1142 bf 0 1 0.52 c 22 41 1714 1142 bf 23 41 1736 1142 bf 23 41 1759 1142 bf 23 41 1782 1142 bf 23 41 1805 1142 bf 23 41 1828 1142 bf 22 41 1851 1142 bf 0 1 0.333333 c 23 41 230 1183 bf 0 1 0.52 c 23 41 253 1183 bf 23 41 276 1183 bf 22 41 299 1183 bf
 23 41 321 1183 bf 23 41 344 1183 bf 0 1 0.333333 c 23 41 367 1183 bf 23 41 390 1183 bf 0 1 0.0533333 c 22 41 413 1183 bf 0 1 0.333333 c 23 41 435 1183 bf 0 1 0.0533333 c 23 41 458 1183 bf 23 41 481 1183 bf 23 41 504 1183 bf 23 41 527 1183 bf
 0.133333 1 0 c 22 41 550 1183 bf 0.413333 1 0 c 23 41 572 1183 bf 23 41 595 1183 bf 23 41 618 1183 bf 0.6 1 0 c 23 41 641 1183 bf 23 41 664 1183 bf 0.88 1 0 c 22 41 687 1183 bf 23 41 709 1183 bf 1 0.933333 0 c 23 41 732 1183 bf 1 0.653333 0 c 23 41
 755 1183 bf 1 0.466667 0 c 23 41 778 1183 bf 1 0.186667 0 c 22 41 801 1183 bf 23 41 823 1183 bf 1 0 0 c 23 41 846 1183 bf 23 41 869 1183 bf 23 41 892 1183 bf 23 41 915 1183 bf 22 41 938 1183 bf 23 41 1143 1183 bf 1 0.186667 0 c 23 41 1166 1183 bf 22
 41 1189 1183 bf 1 0.466667 0 c 23 41 1211 1183 bf 23 41 1234 1183 bf 1 0.653333 0 c 23 41 1257 1183 bf 23 41 1280 1183 bf 1 0.933333 0 c 23 41 1303 1183 bf 0.88 1 0 c 22 41 1326 1183 bf 0.6 1 0 c 23 41 1348 1183 bf 0.413333 1 0 c 23 41 1371 1183 bf
 23 41 1394 1183 bf 23 41 1417 1183 bf 0.133333 1 0 c 23 41 1440 1183 bf 22 41 1463 1183 bf 23 41 1485 1183 bf 0 1 0.0533333 c 23 41 1508 1183 bf 23 41 1531 1183 bf 0 1 0.333333 c 23 41 1554 1183 bf 22 41 1577 1183 bf 23 41 1599 1183 bf 23 41 1622
 1183 bf 23 41 1645 1183 bf 23 41 1668 1183 bf 23 41 1691 1183 bf 0 1 0.52 c 22 41 1714 1183 bf 23 41 1736 1183 bf 23 41 1759 1183 bf 23 41 1782 1183 bf 23 41 1805 1183 bf 23 41 1828 1183 bf 22 41 1851 1183 bf 23 41 230 1224 bf 0 1 0.8 c 23 41 253
 1224 bf 23 41 276 1224 bf 0 1 0.52 c 22 41 299 1224 bf 23 41 321 1224 bf 23 41 344 1224 bf 23 41 367 1224 bf 0 1 0.333333 c 23 41 390 1224 bf 22 41 413 1224 bf 23 41 435 1224 bf 23 41 458 1224 bf 23 41 481 1224 bf 23 41 504 1224 bf 23 41 527 1224 bf
 0 1 0.0533333 c 22 41 550 1224 bf 23 41 572 1224 bf 0.133333 1 0 c 23 41 595 1224 bf 23 41 618 1224 bf 23 41 641 1224 bf 0.413333 1 0 c 23 41 664 1224 bf 22 41 687 1224 bf 23 41 709 1224 bf 0.6 1 0 c 23 41 732 1224 bf 0.88 1 0 c 23 41 755 1224 bf 1
 0.933333 0 c 23 41 778 1224 bf 22 41 801 1224 bf 23 41 823 1224 bf 1 0.653333 0 c 23 41 846 1224 bf 23 41 869 1224 bf 23 41 892 1224 bf 23 41 915 1224 bf 22 41 938 1224 bf 23 41 1143 1224 bf 23 41 1166 1224 bf 1 0.933333 0 c 22 41 1189 1224 bf 23 41
 1211 1224 bf 0.88 1 0 c 23 41 1234 1224 bf 23 41 1257 1224 bf 23 41 1280 1224 bf 0.6 1 0 c 23 41 1303 1224 bf 22 41 1326 1224 bf 0.413333 1 0 c 23 41 1348 1224 bf 23 41 1371 1224 bf 0.133333 1 0 c 23 41 1394 1224 bf 0 1 0.0533333 c 23 41 1417 1224
 bf 23 41 1440 1224 bf 22 41 1463 1224 bf 23 41 1485 1224 bf 0 1 0.333333 c 23 41 1508 1224 bf 23 41 1531 1224 bf 23 41 1554 1224 bf 0 1 0.52 c 22 41 1577 1224 bf 23 41 1599 1224 bf 23 41 1622 1224 bf 23 41 1645 1224 bf 23 41 1668 1224 bf 23 41 1691
 1224 bf 22 41 1714 1224 bf 23 41 1736 1224 bf 0 1 0.8 c 23 41 1759 1224 bf 23 41 1782 1224 bf 23 41 1805 1224 bf 23 41 1828 1224 bf 0 1 0.52 c 22 41 1851 1224 bf 23 41 230 1265 bf 0 1 0.8 c 23 41 253 1265 bf 0 1 0.52 c 23 41 276 1265 bf 22 41 299
 1265 bf 23 41 321 1265 bf 23 41 344 1265 bf 23 41 367 1265 bf 23 41 390 1265 bf 0 1 0.333333 c 22 41 413 1265 bf 0 1 0.52 c 23 41 435 1265 bf 0 1 0.333333 c 23 41 458 1265 bf 23 41 481 1265 bf 23 41 504 1265 bf 23 41 527 1265 bf 0 1 0.0533333 c 22
 41 550 1265 bf 23 41 572 1265 bf 0.133333 1 0 c 23 41 595 1265 bf 23 41 618 1265 bf 23 41 641 1265 bf 0.413333 1 0 c 23 41 664 1265 bf 22 41 687 1265 bf 0.6 1 0 c 23 41 709 1265 bf 0.88 1 0 c 23 41 732 1265 bf 23 41 755 1265 bf 1 0.933333 0 c 23 41
 778 1265 bf 22 41 801 1265 bf 23 41 823 1265 bf 1 0.653333 0 c 23 41 846 1265 bf 23 41 869 1265 bf 23 41 892 1265 bf 23 41 915 1265 bf 22 41 938 1265 bf 1 0.466667 0 c 23 41 1143 1265 bf 1 0.653333 0 c 23 41 1166 1265 bf 22 41 1189 1265 bf 1
 0.933333 0 c 23 41 1211 1265 bf 23 41 1234 1265 bf 0.88 1 0 c 23 41 1257 1265 bf 23 41 1280 1265 bf 0.6 1 0 c 23 41 1303 1265 bf 22 41 1326 1265 bf 0.413333 1 0 c 23 41 1348 1265 bf 0.133333 1 0 c 23 41 1371 1265 bf 23 41 1394 1265 bf 23 41 1417
 1265 bf 0 1 0.0533333 c 23 41 1440 1265 bf 22 41 1463 1265 bf 23 41 1485 1265 bf 0 1 0.333333 c 23 41 1508 1265 bf 23 41 1531 1265 bf 23 41 1554 1265 bf 0 1 0.52 c 22 41 1577 1265 bf 0 1 0.333333 c 23 41 1599 1265 bf 0 1 0.52 c 23 41 1622 1265 bf 23
 41 1645 1265 bf 23 41 1668 1265 bf 23 41 1691 1265 bf 22 41 1714 1265 bf 0 1 0.8 c 23 41 1736 1265 bf 0 1 0.52 c 23 41 1759 1265 bf 0 1 0.8 c 23 41 1782 1265 bf 23 41 1805 1265 bf 23 41 1828 1265 bf 0 1 0.52 c 22 41 1851 1265 bf 0 1 0.333333 c 23 41
 230 1306 bf 0 1 0.52 c 23 41 253 1306 bf 23 41 276 1306 bf 22 41 299 1306 bf 23 41 321 1306 bf 23 41 344 1306 bf 0 1 0.333333 c 23 41 367 1306 bf 23 41 390 1306 bf 22 41 413 1306 bf 0 1 0.0533333 c 23 41 435 1306 bf 0 1 0.333333 c 23 41 458 1306 bf
 0 1 0.0533333 c 23 41 481 1306 bf 23 41 504 1306 bf 23 41 527 1306 bf 0.133333 1 0 c 22 41 550 1306 bf 23 41 572 1306 bf 0.413333 1 0 c 23 41 595 1306 bf 23 41 618 1306 bf 0.6 1 0 c 23 41 641 1306 bf 23 41 664 1306 bf 0.88 1 0 c 22 41 687 1306 bf 23
 41 709 1306 bf 1 0.933333 0 c 23 41 732 1306 bf 1 0.653333 0 c 23 41 755 1306 bf 1 0.466667 0 c 23 41 778 1306 bf 22 41 801 1306 bf 1 0.186667 0 c 23 41 823 1306 bf 23 41 846 1306 bf 1 0 0 c 23 41 869 1306 bf 23 41 892 1306 bf 23 41 915 1306 bf 22
 41 938 1306 bf 23 41 1143 1306 bf 1 0.186667 0 c 23 41 1166 1306 bf 22 41 1189 1306 bf 1 0.466667 0 c 23 41 1211 1306 bf 23 41 1234 1306 bf 1 0.653333 0 c 23 41 1257 1306 bf 23 41 1280 1306 bf 1 0.933333 0 c 23 41 1303 1306 bf 0.88 1 0 c 22 41 1326
 1306 bf 0.6 1 0 c 23 41 1348 1306 bf 0.413333 1 0 c 23 41 1371 1306 bf 23 41 1394 1306 bf 23 41 1417 1306 bf 0.133333 1 0 c 23 41 1440 1306 bf 22 41 1463 1306 bf 23 41 1485 1306 bf 0 1 0.0533333 c 23 41 1508 1306 bf 23 41 1531 1306 bf 0 1 0.333333 c
 23 41 1554 1306 bf 22 41 1577 1306 bf 23 41 1599 1306 bf 23 41 1622 1306 bf 23 41 1645 1306 bf 23 41 1668 1306 bf 23 41 1691 1306 bf 0 1 0.52 c 22 41 1714 1306 bf 23 41 1736 1306 bf 23 41 1759 1306 bf 23 41 1782 1306 bf 23 41 1805 1306 bf 23 41 1828
 1306 bf 22 41 1851 1306 bf 0 1 0.333333 c 23 42 230 1347 bf 0 1 0.52 c 23 42 253 1347 bf 23 42 276 1347 bf 22 42 299 1347 bf 23 42 321 1347 bf 0 1 0.333333 c 23 42 344 1347 bf 23 42 367 1347 bf 23 42 390 1347 bf 0 1 0.0533333 c 22 42 413 1347 bf 0 1
 0.333333 c 23 42 435 1347 bf 23 42 458 1347 bf 23 42 481 1347 bf 0 1 0.0533333 c 23 42 504 1347 bf 23 42 527 1347 bf 22 42 550 1347 bf 0.133333 1 0 c 23 42 572 1347 bf 0.413333 1 0 c 23 42 595 1347 bf 23 42 618 1347 bf 0.6 1 0 c 23 42 641 1347 bf 23
 42 664 1347 bf 22 42 687 1347 bf 0.88 1 0 c 23 42 709 1347 bf 1 0.933333 0 c 23 42 732 1347 bf 1 0.653333 0 c 23 42 755 1347 bf 1 0.466667 0 c 23 42 778 1347 bf 22 42 801 1347 bf 1 0.186667 0 c 23 42 823 1347 bf 23 42 846 1347 bf 1 0 0 c 23 42 869
 1347 bf 23 42 892 1347 bf 23 42 915 1347 bf 22 42 938 1347 bf 23 42 1143 1347 bf 1 0.186667 0 c 23 42 1166 1347 bf 1 0.466667 0 c 22 42 1189 1347 bf 23 42 1211 1347 bf 1 0.653333 0 c 23 42 1234 1347 bf 23 42 1257 1347 bf 1 0.933333 0 c 23 42 1280
 1347 bf 23 42 1303 1347 bf 0.88 1 0 c 22 42 1326 1347 bf 0.6 1 0 c 23 42 1348 1347 bf 0.413333 1 0 c 23 42 1371 1347 bf 23 42 1394 1347 bf 0.133333 1 0 c 23 42 1417 1347 bf 23 42 1440 1347 bf 0 1 0.0533333 c 22 42 1463 1347 bf 0.133333 1 0 c 23 42
 1485 1347 bf 0 1 0.0533333 c 23 42 1508 1347 bf 0 1 0.333333 c 23 42 1531 1347 bf 0 1 0.0533333 c 23 42 1554 1347 bf 0 1 0.333333 c 22 42 1577 1347 bf 23 42 1599 1347 bf 23 42 1622 1347 bf 23 42 1645 1347 bf 23 42 1668 1347 bf 0 1 0.52 c 23 42 1691
 1347 bf 22 42 1714 1347 bf 23 42 1736 1347 bf 23 42 1759 1347 bf 23 42 1782 1347 bf 23 42 1805 1347 bf 23 42 1828 1347 bf 22 42 1851 1347 bf 23 41 230 1389 bf 0 1 0.8 c 23 41 253 1389 bf 23 41 276 1389 bf 0 1 0.52 c 22 41 299 1389 bf 0 1 0.8 c 23 41
 321 1389 bf 0 1 0.52 c 23 41 344 1389 bf 23 41 367 1389 bf 23 41 390 1389 bf 22 41 413 1389 bf 23 41 435 1389 bf 23 41 458 1389 bf 0 1 0.333333 c 23 41 481 1389 bf 23 41 504 1389 bf 23 41 527 1389 bf 22 41 550 1389 bf 0 1 0.0533333 c 23 41 572 1389
 bf 23 41 595 1389 bf 23 41 618 1389 bf 0.133333 1 0 c 23 41 641 1389 bf 23 41 664 1389 bf 0.413333 1 0 c 22 41 687 1389 bf 23 41 709 1389 bf 0.6 1 0 c 23 41 732 1389 bf 0.88 1 0 c 23 41 755 1389 bf 23 41 778 1389 bf 1 0.933333 0 c 22 41 801 1389 bf
 23 41 823 1389 bf 23 41 846 1389 bf 1 0.653333 0 c 23 41 869 1389 bf 23 41 892 1389 bf 23 41 915 1389 bf 22 41 938 1389 bf 1 0.933333 0 c 23 41 1143 1389 bf 23 41 1166 1389 bf 22 41 1189 1389 bf 23 41 1211 1389 bf 0.88 1 0 c 23 41 1234 1389 bf 0.6 1
 0 c 23 41 1257 1389 bf 23 41 1280 1389 bf 23 41 1303 1389 bf 0.413333 1 0 c 22 41 1326 1389 bf 23 41 1348 1389 bf 0.133333 1 0 c 23 41 1371 1389 bf 23 41 1394 1389 bf 0 1 0.0533333 c 23 41 1417 1389 bf 23 41 1440 1389 bf 22 41 1463 1389 bf 23 41
 1485 1389 bf 0 1 0.333333 c 23 41 1508 1389 bf 23 41 1531 1389 bf 0 1 0.52 c 23 41 1554 1389 bf 22 41 1577 1389 bf 23 41 1599 1389 bf 23 41 1622 1389 bf 23 41 1645 1389 bf 23 41 1668 1389 bf 23 41 1691 1389 bf 22 41 1714 1389 bf 0 1 0.8 c 23 41 1736
 1389 bf 23 41 1759 1389 bf 23 41 1782 1389 bf 23 41 1805 1389 bf 23 41 1828 1389 bf 22 41 1851 1389 bf 23 41 230 1430 bf 23 41 253 1430 bf 23 41 276 1430 bf 22 41 299 1430 bf 0 1 0.52 c 23 41 321 1430 bf 23 41 344 1430 bf 23 41 367 1430 bf 23 41 390
 1430 bf 0 1 0.333333 c 22 41 413 1430 bf 0 1 0.52 c 23 41 435 1430 bf 23 41 458 1430 bf 0 1 0.333333 c 23 41 481 1430 bf 23 41 504 1430 bf 23 41 527 1430 bf 0 1 0.0533333 c 22 41 550 1430 bf 0.133333 1 0 c 23 41 572 1430 bf 0 1 0.0533333 c 23 41 595
 1430 bf 23 41 618 1430 bf 0.133333 1 0 c 23 41 641 1430 bf 0.413333 1 0 c 23 41 664 1430 bf 22 41 687 1430 bf 0.6 1 0 c 23 41 709 1430 bf 23 41 732 1430 bf 0.88 1 0 c 23 41 755 1430 bf 23 41 778 1430 bf 1 0.933333 0 c 22 41 801 1430 bf 23 41 823
 1430 bf 23 41 846 1430 bf 1 0.653333 0 c 23 41 869 1430 bf 23 41 892 1430 bf 23 41 915 1430 bf 22 41 938 1430 bf 23 41 1143 1430 bf 1 0.933333 0 c 23 41 1166 1430 bf 22 41 1189 1430 bf 23 41 1211 1430 bf 0.88 1 0 c 23 41 1234 1430 bf 23 41 1257 1430
 bf 0.6 1 0 c 23 41 1280 1430 bf 23 41 1303 1430 bf 0.413333 1 0 c 22 41 1326 1430 bf 23 41 1348 1430 bf 0.133333 1 0 c 23 41 1371 1430 bf 23 41 1394 1430 bf 0 1 0.0533333 c 23 41 1417 1430 bf 23 41 1440 1430 bf 0 1 0.333333 c 22 41 1463 1430 bf 0 1
 0.0533333 c 23 41 1485 1430 bf 0 1 0.333333 c 23 41 1508 1430 bf 23 41 1531 1430 bf 23 41 1554 1430 bf 0 1 0.52 c 22 41 1577 1430 bf 23 41 1599 1430 bf 23 41 1622 1430 bf 23 41 1645 1430 bf 23 41 1668 1430 bf 23 41 1691 1430 bf 0 1 0.8 c 22 41 1714
 1430 bf 23 41 1736 1430 bf 23 41 1759 1430 bf 23 41 1782 1430 bf 23 41 1805 1430 bf 23 41 1828 1430 bf 22 41 1851 1430 bf 0 1 0.52 c 23 41 230 1471 bf 23 41 253 1471 bf 23 41 276 1471 bf 22 41 299 1471 bf 23 41 321 1471 bf 23 41 344 1471 bf 23 41
 367 1471 bf 0 1 0.333333 c 23 41 390 1471 bf 22 41 413 1471 bf 23 41 435 1471 bf 23 41 458 1471 bf 23 41 481 1471 bf 23 41 504 1471 bf 0 1 0.0533333 c 23 41 527 1471 bf 22 41 550 1471 bf 0.133333 1 0 c 23 41 572 1471 bf 23 41 595 1471 bf 0.413333 1
 0 c 23 41 618 1471 bf 23 41 641 1471 bf 0.6 1 0 c 23 41 664 1471 bf 22 41 687 1471 bf 0.88 1 0 c 23 41 709 1471 bf 1 0.933333 0 c 23 41 732 1471 bf 23 41 755 1471 bf 1 0.653333 0 c 23 41 778 1471 bf 1 0.466667 0 c 22 41 801 1471 bf 23 41 823 1471 bf
 23 41 846 1471 bf 1 0.186667 0 c 23 41 869 1471 bf 23 41 892 1471 bf 23 41 915 1471 bf 22 41 938 1471 bf 23 41 1143 1471 bf 1 0.466667 0 c 23 41 1166 1471 bf 22 41 1189 1471 bf 23 41 1211 1471 bf 1 0.653333 0 c 23 41 1234 1471 bf 1 0.933333 0 c 23
 41 1257 1471 bf 23 41 1280 1471 bf 0.88 1 0 c 23 41 1303 1471 bf 22 41 1326 1471 bf 0.413333 1 0 c 23 41 1348 1471 bf 23 41 1371 1471 bf 23 41 1394 1471 bf 0.133333 1 0 c 23 41 1417 1471 bf 23 41 1440 1471 bf 0 1 0.0533333 c 22 41 1463 1471 bf
 0.133333 1 0 c 23 41 1485 1471 bf 0 1 0.0533333 c 23 41 1508 1471 bf 0 1 0.333333 c 23 41 1531 1471 bf 23 41 1554 1471 bf 22 41 1577 1471 bf 23 41 1599 1471 bf 0 1 0.52 c 23 41 1622 1471 bf 23 41 1645 1471 bf 0 1 0.333333 c 23 41 1668 1471 bf 0 1
 0.52 c 23 41 1691 1471 bf 22 41 1714 1471 bf 23 41 1736 1471 bf 23 41 1759 1471 bf 23 41 1782 1471 bf 23 41 1805 1471 bf 23 41 1828 1471 bf 22 41 1851 1471 bf 23 41 230 1512 bf 23 41 253 1512 bf 23 41 276 1512 bf 22 41 299 1512 bf 23 41 321 1512 bf
 23 41 344 1512 bf 23 41 367 1512 bf 0 1 0.333333 c 23 41 390 1512 bf 22 41 413 1512 bf 23 41 435 1512 bf 23 41 458 1512 bf 23 41 481 1512 bf 23 41 504 1512 bf 0 1 0.0533333 c 23 41 527 1512 bf 22 41 550 1512 bf 0.133333 1 0 c 23 41 572 1512 bf
 0.413333 1 0 c 23 41 595 1512 bf 23 41 618 1512 bf 23 41 641 1512 bf 23 41 664 1512 bf 0.6 1 0 c 22 41 687 1512 bf 0.88 1 0 c 23 41 709 1512 bf 23 41 732 1512 bf 1 0.933333 0 c 23 41 755 1512 bf 1 0.653333 0 c 23 41 778 1512 bf 22 41 801 1512 bf 1
 0.466667 0 c 23 41 823 1512 bf 23 41 846 1512 bf 23 41 869 1512 bf 1 0.186667 0 c 23 41 892 1512 bf 23 41 915 1512 bf 22 41 938 1512 bf 23 41 1143 1512 bf 1 0.466667 0 c 23 41 1166 1512 bf 22 41 1189 1512 bf 1 0.653333 0 c 23 41 1211 1512 bf 23 41
 1234 1512 bf 1 0.933333 0 c 23 41 1257 1512 bf 0.88 1 0 c 23 41 1280 1512 bf 23 41 1303 1512 bf 0.6 1 0 c 22 41 1326 1512 bf 23 41 1348 1512 bf 0.413333 1 0 c 23 41 1371 1512 bf 0.133333 1 0 c 23 41 1394 1512 bf 23 41 1417 1512 bf 23 41 1440 1512 bf
 0 1 0.0533333 c 22 41 1463 1512 bf 23 41 1485 1512 bf 23 41 1508 1512 bf 0 1 0.333333 c 23 41 1531 1512 bf 23 41 1554 1512 bf 22 41 1577 1512 bf 0 1 0.52 c 23 41 1599 1512 bf 0 1 0.333333 c 23 41 1622 1512 bf 0 1 0.52 c 23 41 1645 1512 bf 23 41 1668
 1512 bf 23 41 1691 1512 bf 22 41 1714 1512 bf 23 41 1736 1512 bf 23 41 1759 1512 bf 23 41 1782 1512 bf 23 41 1805 1512 bf 23 41 1828 1512 bf 22 41 1851 1512 bf 0 1 0.8 c 23 41 230 1553 bf 23 41 253 1553 bf 23 41 276 1553 bf 22 41 299 1553 bf 23 41
 321 1553 bf 23 41 344 1553 bf 23 41 367 1553 bf 0 1 0.52 c 23 41 390 1553 bf 22 41 413 1553 bf 23 41 435 1553 bf 23 41 458 1553 bf 23 41 481 1553 bf 0 1 0.333333 c 23 41 504 1553 bf 23 41 527 1553 bf 22 41 550 1553 bf 0 1 0.0533333 c 23 41 572 1553
 bf 23 41 595 1553 bf 23 41 618 1553 bf 0.133333 1 0 c 23 41 641 1553 bf 23 41 664 1553 bf 22 41 687 1553 bf 0.413333 1 0 c 23 41 709 1553 bf 0.6 1 0 c 23 41 732 1553 bf 23 41 755 1553 bf 0.88 1 0 c 23 41 778 1553 bf 22 41 801 1553 bf 23 41 823 1553
 bf 1 0.933333 0 c 23 41 846 1553 bf 23 41 869 1553 bf 23 41 892 1553 bf 23 41 915 1553 bf 22 41 938 1553 bf 23 41 1143 1553 bf 23 41 1166 1553 bf 0.6 1 0 c 22 41 1189 1553 bf 0.88 1 0 c 23 41 1211 1553 bf 0.6 1 0 c 23 41 1234 1553 bf 23 41 1257 1553
 bf 0.413333 1 0 c 23 41 1280 1553 bf 23 41 1303 1553 bf 22 41 1326 1553 bf 0.133333 1 0 c 23 41 1348 1553 bf 23 41 1371 1553 bf 0 1 0.0533333 c 23 41 1394 1553 bf 23 41 1417 1553 bf 0 1 0.333333 c 23 41 1440 1553 bf 22 41 1463 1553 bf 23 41 1485
 1553 bf 23 41 1508 1553 bf 23 41 1531 1553 bf 0 1 0.52 c 23 41 1554 1553 bf 22 41 1577 1553 bf 23 41 1599 1553 bf 23 41 1622 1553 bf 23 41 1645 1553 bf 23 41 1668 1553 bf 23 41 1691 1553 bf 0 1 0.8 c 22 41 1714 1553 bf 23 41 1736 1553 bf 23 41 1759
 1553 bf 23 41 1782 1553 bf 23 41 1805 1553 bf 23 41 1828 1553 bf 22 41 1851 1553 bf 23 41 230 1594 bf 23 41 253 1594 bf 23 41 276 1594 bf 22 41 299 1594 bf 23 41 321 1594 bf 23 41 344 1594 bf 23 41 367 1594 bf 0 1 0.52 c 23 41 390 1594 bf 22 41 413
 1594 bf 23 41 435 1594 bf 23 41 458 1594 bf 23 41 481 1594 bf 0 1 0.333333 c 23 41 504 1594 bf 23 41 527 1594 bf 22 41 550 1594 bf 0 1 0.0533333 c 23 41 572 1594 bf 23 41 595 1594 bf 23 41 618 1594 bf 0.133333 1 0 c 23 41 641 1594 bf 23 41 664 1594
 bf 0.413333 1 0 c 22 41 687 1594 bf 23 41 709 1594 bf 23 41 732 1594 bf 0.6 1 0 c 23 41 755 1594 bf 23 41 778 1594 bf 0.88 1 0 c 22 41 801 1594 bf 23 41 823 1594 bf 1 0.933333 0 c 23 41 846 1594 bf 23 41 869 1594 bf 23 41 892 1594 bf 23 41 915 1594
 bf 22 41 938 1594 bf 23 41 1143 1594 bf 23 41 1166 1594 bf 0.88 1 0 c 22 41 1189 1594 bf 23 41 1211 1594 bf 23 41 1234 1594 bf 0.6 1 0 c 23 41 1257 1594 bf 23 41 1280 1594 bf 0.413333 1 0 c 23 41 1303 1594 bf 22 41 1326 1594 bf 0.133333 1 0 c 23 41
 1348 1594 bf 23 41 1371 1594 bf 0 1 0.0533333 c 23 41 1394 1594 bf 23 41 1417 1594 bf 23 41 1440 1594 bf 0 1 0.333333 c 22 41 1463 1594 bf 23 41 1485 1594 bf 23 41 1508 1594 bf 23 41 1531 1594 bf 0 1 0.52 c 23 41 1554 1594 bf 22 41 1577 1594 bf 23
 41 1599 1594 bf 23 41 1622 1594 bf 23 41 1645 1594 bf 23 41 1668 1594 bf 23 41 1691 1594 bf 0 1 0.8 c 22 41 1714 1594 bf 23 41 1736 1594 bf 23 41 1759 1594 bf 23 41 1782 1594 bf 23 41 1805 1594 bf 23 41 1828 1594 bf 22 41 1851 1594 bf 0 1 0.52 c 23
 41 230 1635 bf 23 41 253 1635 bf 0 1 0.8 c 23 41 276 1635 bf 0 1 0.52 c 22 41 299 1635 bf 23 41 321 1635 bf 23 41 344 1635 bf 23 41 367 1635 bf 0 1 0.333333 c 23 41 390 1635 bf 22 41 413 1635 bf 0 1 0.52 c 23 41 435 1635 bf 0 1 0.333333 c 23 41 458
 1635 bf 23 41 481 1635 bf 23 41 504 1635 bf 23 41 527 1635 bf 0 1 0.0533333 c 22 41 550 1635 bf 23 41 572 1635 bf 0.133333 1 0 c 23 41 595 1635 bf 23 41 618 1635 bf 0.413333 1 0 c 23 41 641 1635 bf 23 41 664 1635 bf 0.6 1 0 c 22 41 687 1635 bf 23 41
 709 1635 bf 0.88 1 0 c 23 41 732 1635 bf 23 41 755 1635 bf 1 0.933333 0 c 23 41 778 1635 bf 1 0.653333 0 c 22 41 801 1635 bf 23 41 823 1635 bf 1 0.466667 0 c 23 41 846 1635 bf 23 41 869 1635 bf 23 41 892 1635 bf 23 41 915 1635 bf 22 41 938 1635 bf
 23 41 1143 1635 bf 23 41 1166 1635 bf 22 41 1189 1635 bf 1 0.653333 0 c 23 41 1211 1635 bf 1 0.933333 0 c 23 41 1234 1635 bf 23 41 1257 1635 bf 0.88 1 0 c 23 41 1280 1635 bf 23 41 1303 1635 bf 0.6 1 0 c 22 41 1326 1635 bf 0.413333 1 0 c 23 41 1348
 1635 bf 23 41 1371 1635 bf 0.133333 1 0 c 23 41 1394 1635 bf 23 41 1417 1635 bf 0 1 0.0533333 c 23 41 1440 1635 bf 22 41 1463 1635 bf 23 41 1485 1635 bf 23 41 1508 1635 bf 0 1 0.333333 c 23 41 1531 1635 bf 23 41 1554 1635 bf 22 41 1577 1635 bf 0 1
 0.52 c 23 41 1599 1635 bf 23 41 1622 1635 bf 23 41 1645 1635 bf 23 41 1668 1635 bf 23 41 1691 1635 bf 22 41 1714 1635 bf 0 1 0.8 c 23 41 1736 1635 bf 23 41 1759 1635 bf 23 41 1782 1635 bf 23 41 1805 1635 bf 23 41 1828 1635 bf 0 1 0.52 c 22 41 1851
 1635 bf 23 41 230 1676 bf 0 1 0.8 c 23 41 253 1676 bf 0 1 0.52 c 23 41 276 1676 bf 22 41 299 1676 bf 23 41 321 1676 bf 23 41 344 1676 bf 23 41 367 1676 bf 23 41 390 1676 bf 0 1 0.333333 c 22 41 413 1676 bf 0 1 0.52 c 23 41 435 1676 bf 0 1 0.333333 c
 23 41 458 1676 bf 23 41 481 1676 bf 23 41 504 1676 bf 23 41 527 1676 bf 0 1 0.0533333 c 22 41 550 1676 bf 23 41 572 1676 bf 0.133333 1 0 c 23 41 595 1676 bf 23 41 618 1676 bf 23 41 641 1676 bf 0.413333 1 0 c 23 41 664 1676 bf 22 41 687 1676 bf 0.6 1
 0 c 23 41 709 1676 bf 0.88 1 0 c 23 41 732 1676 bf 23 41 755 1676 bf 1 0.933333 0 c 23 41 778 1676 bf 22 41 801 1676 bf 1 0.653333 0 c 23 41 823 1676 bf 23 41 846 1676 bf 1 0.466667 0 c 23 41 869 1676 bf 23 41 892 1676 bf 23 41 915 1676 bf 22 41 938
 1676 bf 23 41 1143 1676 bf 23 41 1166 1676 bf 1 0.653333 0 c 22 41 1189 1676 bf 23 41 1211 1676 bf 1 0.933333 0 c 23 41 1234 1676 bf 0.88 1 0 c 23 41 1257 1676 bf 23 41 1280 1676 bf 23 41 1303 1676 bf 0.6 1 0 c 22 41 1326 1676 bf 0.413333 1 0 c 23
 41 1348 1676 bf 0.133333 1 0 c 23 41 1371 1676 bf 23 41 1394 1676 bf 23 41 1417 1676 bf 0 1 0.0533333 c 23 41 1440 1676 bf 22 41 1463 1676 bf 23 41 1485 1676 bf 23 41 1508 1676 bf 0 1 0.333333 c 23 41 1531 1676 bf 23 41 1554 1676 bf 0 1 0.52 c 22 41
 1577 1676 bf 0 1 0.333333 c 23 41 1599 1676 bf 0 1 0.52 c 23 41 1622 1676 bf 23 41 1645 1676 bf 23 41 1668 1676 bf 23 41 1691 1676 bf 22 41 1714 1676 bf 0 1 0.8 c 23 41 1736 1676 bf 23 41 1759 1676 bf 23 41 1782 1676 bf 23 41 1805 1676 bf 23 41 1828
 1676 bf 22 41 1851 1676 bf 23 41 230 1717 bf 23 41 253 1717 bf 23 41 276 1717 bf 22 41 299 1717 bf 23 41 321 1717 bf 23 41 344 1717 bf 23 41 367 1717 bf 0 1 0.52 c 23 41 390 1717 bf 22 41 413 1717 bf 23 41 435 1717 bf 23 41 458 1717 bf 23 41 481
 1717 bf 23 41 504 1717 bf 0 1 0.333333 c 23 41 527 1717 bf 22 41 550 1717 bf 23 41 572 1717 bf 0 1 0.0533333 c 23 41 595 1717 bf 23 41 618 1717 bf 23 41 641 1717 bf 0.133333 1 0 c 23 41 664 1717 bf 22 41 687 1717 bf 0.413333 1 0 c 23 41 709 1717 bf
 23 41 732 1717 bf 0.6 1 0 c 23 41 755 1717 bf 23 41 778 1717 bf 22 41 801 1717 bf 0.88 1 0 c 23 41 823 1717 bf 23 41 846 1717 bf 1 0.933333 0 c 23 41 869 1717 bf 0.88 1 0 c 23 41 892 1717 bf 1 0.933333 0 c 23 41 915 1717 bf 22 41 938 1717 bf 23 41
 1143 1717 bf 0.88 1 0 c 23 41 1166 1717 bf 22 41 1189 1717 bf 0.6 1 0 c 23 41 1211 1717 bf 23 41 1234 1717 bf 23 41 1257 1717 bf 0.413333 1 0 c 23 41 1280 1717 bf 23 41 1303 1717 bf 0.133333 1 0 c 22 41 1326 1717 bf 23 41 1348 1717 bf 0 1 0.0533333
 c 23 41 1371 1717 bf 23 41 1394 1717 bf 0 1 0.333333 c 23 41 1417 1717 bf 23 41 1440 1717 bf 22 41 1463 1717 bf 23 41 1485 1717 bf 23 41 1508 1717 bf 0 1 0.52 c 23 41 1531 1717 bf 23 41 1554 1717 bf 22 41 1577 1717 bf 23 41 1599 1717 bf 23 41 1622
 1717 bf 0 1 0.8 c 23 41 1645 1717 bf 0 1 0.52 c 23 41 1668 1717 bf 0 1 0.8 c 23 41 1691 1717 bf 22 41 1714 1717 bf 23 41 1736 1717 bf 23 41 1759 1717 bf 23 41 1782 1717 bf 23 41 1805 1717 bf 23 41 1828 1717 bf 22 41 1851 1717 bf 23 41 230 1758 bf 23
 41 253 1758 bf 23 41 276 1758 bf 22 41 299 1758 bf 23 41 321 1758 bf 23 41 344 1758 bf 23 41 367 1758 bf 0 1 0.52 c 23 41 390 1758 bf 22 41 413 1758 bf 23 41 435 1758 bf 23 41 458 1758 bf 0 1 0.333333 c 23 41 481 1758 bf 23 41 504 1758 bf 23 41 527
 1758 bf 22 41 550 1758 bf 0 1 0.0533333 c 23 41 572 1758 bf 23 41 595 1758 bf 23 41 618 1758 bf 0.133333 1 0 c 23 41 641 1758 bf 23 41 664 1758 bf 22 41 687 1758 bf 0.413333 1 0 c 23 41 709 1758 bf 23 41 732 1758 bf 0.6 1 0 c 23 41 755 1758 bf 23 41
 778 1758 bf 0.88 1 0 c 22 41 801 1758 bf 23 41 823 1758 bf 1 0.933333 0 c 23 41 846 1758 bf 23 41 869 1758 bf 23 41 892 1758 bf 23 41 915 1758 bf 22 41 938 1758 bf 23 41 1143 1758 bf 0.88 1 0 c 23 41 1166 1758 bf 22 41 1189 1758 bf 23 41 1211 1758
 bf 0.6 1 0 c 23 41 1234 1758 bf 23 41 1257 1758 bf 0.413333 1 0 c 23 41 1280 1758 bf 23 41 1303 1758 bf 0.133333 1 0 c 22 41 1326 1758 bf 23 41 1348 1758 bf 23 41 1371 1758 bf 0 1 0.0533333 c 23 41 1394 1758 bf 0 1 0.333333 c 23 41 1417 1758 bf 23
 41 1440 1758 bf 22 41 1463 1758 bf 23 41 1485 1758 bf 23 41 1508 1758 bf 23 41 1531 1758 bf 0 1 0.52 c 23 41 1554 1758 bf 22 41 1577 1758 bf 23 41 1599 1758 bf 23 41 1622 1758 bf 23 41 1645 1758 bf 23 41 1668 1758 bf 23 41 1691 1758 bf 0 1 0.8 c 22
 41 1714 1758 bf 23 41 1736 1758 bf 23 41 1759 1758 bf 23 41 1782 1758 bf 23 41 1805 1758 bf 23 41 1828 1758 bf 22 41 1851 1758 bf 0 1 0.52 c 23 41 230 1799 bf 23 41 253 1799 bf 23 41 276 1799 bf 22 41 299 1799 bf 23 41 321 1799 bf 23 41 344 1799 bf
 23 41 367 1799 bf 0 1 0.333333 c 23 41 390 1799 bf 22 41 413 1799 bf 0 1 0.52 c 23 41 435 1799 bf 0 1 0.333333 c 23 41 458 1799 bf 23 41 481 1799 bf 23 41 504 1799 bf 23 41 527 1799 bf 0 1 0.0533333 c 22 41 550 1799 bf 23 41 572 1799 bf 0.133333 1 0
 c 23 41 595 1799 bf 23 41 618 1799 bf 23 41 641 1799 bf 0.413333 1 0 c 23 41 664 1799 bf 22 41 687 1799 bf 0.6 1 0 c 23 41 709 1799 bf 0.88 1 0 c 23 41 732 1799 bf 1 0.933333 0 c 23 41 755 1799 bf 23 41 778 1799 bf 1 0.653333 0 c 22 41 801 1799 bf
 23 41 823 1799 bf 23 41 846 1799 bf 23 41 869 1799 bf 1 0.466667 0 c 23 41 892 1799 bf 23 41 915 1799 bf 22 41 938 1799 bf 23 41 1143 1799 bf 1 0.653333 0 c 23 41 1166 1799 bf 22 41 1189 1799 bf 1 0.933333 0 c 23 41 1211 1799 bf 23 41 1234 1799 bf
 0.88 1 0 c 23 41 1257 1799 bf 23 41 1280 1799 bf 23 41 1303 1799 bf 0.6 1 0 c 22 41 1326 1799 bf 0.413333 1 0 c 23 41 1348 1799 bf 0.133333 1 0 c 23 41 1371 1799 bf 23 41 1394 1799 bf 23 41 1417 1799 bf 0 1 0.0533333 c 23 41 1440 1799 bf 22 41 1463
 1799 bf 23 41 1485 1799 bf 0 1 0.333333 c 23 41 1508 1799 bf 23 41 1531 1799 bf 0 1 0.52 c 23 41 1554 1799 bf 22 41 1577 1799 bf 23 41 1599 1799 bf 23 41 1622 1799 bf 23 41 1645 1799 bf 23 41 1668 1799 bf 23 41 1691 1799 bf 22 41 1714 1799 bf 0 1
 0.8 c 23 41 1736 1799 bf 0 1 0.52 c 23 41 1759 1799 bf 0 1 0.8 c 23 41 1782 1799 bf 0 1 0.52 c 23 41 1805 1799 bf 0 1 0.8 c 23 41 1828 1799 bf 0 1 0.52 c 22 41 1851 1799 bf 1 1 1 c black 230 197 m 1643 X s
 gsave  2268 1972 0 0 C 1501.95 29.5789 t 0 r /Helvetica findfont 98.5964 sf 0 0 m (Modules) show NC gr  321 240 m -43 Y s 358 219 m -22 Y s 394 219 m -22 Y s 431 219 m -22 Y s 467 219 m -22 Y s 504 240 m -43 Y s 540 219 m -22 Y s 577 219 m -22 Y s
 613 219 m -22 Y s 650 219 m -22 Y s 687 240 m -43 Y s 723 219 m -22 Y s 760 219 m -22 Y s 796 219 m -22 Y s 833 219 m -22 Y s 869 240 m -43 Y s 906 219 m -22 Y s 942 219 m -22 Y s 979 219 m -22 Y s 1015 219 m -22 Y s 1052 240 m -43 Y s 1088 219 m
 -22 Y s 1125 219 m -22 Y s 1161 219 m -22 Y s 1198 219 m -22 Y s 1234 240 m -43 Y s 1271 219 m -22 Y s 1307 219 m -22 Y s 1344 219 m -22 Y s 1380 219 m -22 Y s 1417 240 m -43 Y s 1453 219 m -22 Y s 1490 219 m -22 Y s 1526 219 m -22 Y s 1563 219 m
 -22 Y s 1599 240 m -43 Y s 1636 219 m -22 Y s 1672 219 m -22 Y s 1709 219 m -22 Y s 1746 219 m -22 Y s 1782 240 m -43 Y s 321 240 m -43 Y s 285 219 m -22 Y s 248 219 m -22 Y s 1782 240 m -43 Y s 1819 219 m -22 Y s 1855 219 m -22 Y s
 gsave  2268 1972 0 0 C 318.795 134.748 t 0 r /Helvetica findfont 62.4444 sf 0 0 m (4) show NC gr 
 gsave  2268 1972 0 0 C 282.643 134.748 t 0 r /Symbol findfont 62.4444 sf 0 0 m (-) show NC gr 
 gsave  2268 1972 0 0 C 502.841 134.748 t 0 r /Helvetica findfont 62.4444 sf 0 0 m (3) show NC gr 
 gsave  2268 1972 0 0 C 466.689 134.748 t 0 r /Symbol findfont 62.4444 sf 0 0 m (-) show NC gr 
 gsave  2268 1972 0 0 C 683.602 134.748 t 0 r /Helvetica findfont 62.4444 sf 0 0 m (2) show NC gr 
 gsave  2268 1972 0 0 C 647.45 134.748 t 0 r /Symbol findfont 62.4444 sf 0 0 m (-) show NC gr 
 gsave  2268 1972 0 0 C 870.935 134.748 t 0 r /Helvetica findfont 62.4444 sf 0 0 m (1) show NC gr 
 gsave  2268 1972 0 0 C 838.069 134.748 t 0 r /Symbol findfont 62.4444 sf 0 0 m (-) show NC gr 
 gsave  2268 1972 0 0 C 1035.26 134.748 t 0 r /Helvetica findfont 62.4444 sf 0 0 m (0) show NC gr 
 gsave  2268 1972 0 0 C 1219.31 134.748 t 0 r /Helvetica findfont 62.4444 sf 0 0 m (1) show NC gr 
 gsave  2268 1972 0 0 C 1400.07 134.748 t 0 r /Helvetica findfont 62.4444 sf 0 0 m (2) show NC gr 
 gsave  2268 1972 0 0 C 1580.83 134.748 t 0 r /Helvetica findfont 62.4444 sf 0 0 m (3) show NC gr 
 gsave  2268 1972 0 0 C 1764.88 134.748 t 0 r /Helvetica findfont 62.4444 sf 0 0 m (4) show NC gr  230 197 m 1643 Y s
 gsave  2268 1972 0 0 C 101.883 1485.52 t 90 r /Helvetica findfont 98.5964 sf 0 0 m (Ladders) show NC gr  287 197 m -57 X s 258 238 m -28 X s 258 279 m -28 X s 258 320 m -28 X s 287 362 m -57 X s 258 403 m -28 X s 258 444 m -28 X s 258 485 m -28 X s
 287 526 m -57 X s 258 567 m -28 X s 258 608 m -28 X s 258 649 m -28 X s 287 690 m -57 X s 258 731 m -28 X s 258 772 m -28 X s 258 813 m -28 X s 287 855 m -57 X s 258 896 m -28 X s 258 937 m -28 X s 258 978 m -28 X s 287 1019 m -57 X s 258 1060 m -28
 X s 258 1101 m -28 X s 258 1142 m -28 X s 287 1183 m -57 X s 258 1224 m -28 X s 258 1265 m -28 X s 258 1306 m -28 X s 287 1347 m -57 X s 258 1389 m -28 X s 258 1430 m -28 X s 258 1471 m -28 X s 287 1512 m -57 X s 258 1553 m -28 X s 258 1594 m -28 X
 s 258 1635 m -28 X s 287 1676 m -57 X s 258 1717 m -28 X s 258 1758 m -28 X s 258 1799 m -28 X s 287 1840 m -57 X s
 gsave  2268 1972 0 0 C 147.895 174.187 t 0 r /Helvetica findfont 62.4444 sf 0 0 m (10) show NC gr 
 gsave  2268 1972 0 0 C 111.743 174.187 t 0 r /Symbol findfont 62.4444 sf 0 0 m (-) show NC gr 
 gsave  2268 1972 0 0 C 184.047 338.514 t 0 r /Helvetica findfont 62.4444 sf 0 0 m (8) show NC gr 
 gsave  2268 1972 0 0 C 147.895 338.514 t 0 r /Symbol findfont 62.4444 sf 0 0 m (-) show NC gr 
 gsave  2268 1972 0 0 C 184.047 502.841 t 0 r /Helvetica findfont 62.4444 sf 0 0 m (6) show NC gr 
 gsave  2268 1972 0 0 C 147.895 502.841 t 0 r /Symbol findfont 62.4444 sf 0 0 m (-) show NC gr 
 gsave  2268 1972 0 0 C 184.047 663.882 t 0 r /Helvetica findfont 62.4444 sf 0 0 m (4) show NC gr 
 gsave  2268 1972 0 0 C 147.895 663.882 t 0 r /Symbol findfont 62.4444 sf 0 0 m (-) show NC gr 
 gsave  2268 1972 0 0 C 184.047 828.209 t 0 r /Helvetica findfont 62.4444 sf 0 0 m (2) show NC gr 
 gsave  2268 1972 0 0 C 147.895 828.209 t 0 r /Symbol findfont 62.4444 sf 0 0 m (-) show NC gr 
 gsave  2268 1972 0 0 C 184.047 995.823 t 0 r /Helvetica findfont 62.4444 sf 0 0 m (0) show NC gr 
 gsave  2268 1972 0 0 C 184.047 1156.86 t 0 r /Helvetica findfont 62.4444 sf 0 0 m (2) show NC gr 
 gsave  2268 1972 0 0 C 184.047 1321.19 t 0 r /Helvetica findfont 62.4444 sf 0 0 m (4) show NC gr 
 gsave  2268 1972 0 0 C 184.047 1488.81 t 0 r /Helvetica findfont 62.4444 sf 0 0 m (6) show NC gr 
 gsave  2268 1972 0 0 C 184.047 1653.13 t 0 r /Helvetica findfont 62.4444 sf 0 0 m (8) show NC gr 
 gsave  2268 1972 0 0 C 147.895 1817.46 t 0 r /Helvetica findfont 62.4444 sf 0 0 m (10) show NC gr  0.386667 0 1 c 82 82 1890 197 bf 0.2 0 1 c 82 83 1890 279 bf 0 0.0800001 1 c 82 82 1890 362 bf 0 0.266667 1 c 82 82 1890 444 bf 0 0.546666 1 c 82 82
 1890 526 bf 0 0.733333 1 c 82 82 1890 608 bf 0 1 0.986667 c 82 82 1890 690 bf 0 1 0.8 c 82 83 1890 772 bf 0 1 0.52 c 82 82 1890 855 bf 0 1 0.333333 c 82 82 1890 937 bf 0 1 0.0533333 c 82 82 1890 1019 bf 0.133333 1 0 c 82 82 1890 1101 bf 0.413333 1 0
 c 82 82 1890 1183 bf 0.6 1 0 c 82 82 1890 1265 bf 0.88 1 0 c 82 83 1890 1347 bf 1 0.933333 0 c 82 82 1890 1430 bf 1 0.653333 0 c 82 82 1890 1512 bf 1 0.466667 0 c 82 82 1890 1594 bf 1 0.186667 0 c 82 82 1890 1676 bf 1 0 0 c 82 82 1890 1758 bf black
 1972 197 m 1643 Y s
 gsave  2268 1972 0 0 C 2185.55 1840.47 t 270 r /Helvetica findfont 98.5964 sf 0 0 m (Cluster Occupancy\255 Layer 1) show NC gr  1915 197 m 57 X s 1915 380 m 57 X s 1915 563 m 57 X s 1915 746 m 57 X s 1915 929 m 57 X s 1915 1112 m 57 X s 1915 1295 m
 57 X s 1915 1477 m 57 X s 1915 1660 m 57 X s 1915 1660 m 57 X s
 gsave  2268 1972 0 0 C 1981.79 174.187 t 0 r /Helvetica findfont 62.4444 sf 0 0 m (0) show NC gr 
 gsave  2268 1972 0 0 C 1981.79 358.233 t 0 r /Helvetica findfont 62.4444 sf 0 0 m (2000) show NC gr 
 gsave  2268 1972 0 0 C 1981.79 542.28 t 0 r /Helvetica findfont 62.4444 sf 0 0 m (4000) show NC gr 
 gsave  2268 1972 0 0 C 1981.79 723.04 t 0 r /Helvetica findfont 62.4444 sf 0 0 m (6000) show NC gr 
 gsave  2268 1972 0 0 C 1981.79 907.087 t 0 r /Helvetica findfont 62.4444 sf 0 0 m (8000) show NC gr 
 gsave  2268 1972 0 0 C 1981.79 1091.13 t 0 r /Helvetica findfont 62.4444 sf 0 0 m (10000) show NC gr 
 gsave  2268 1972 0 0 C 1981.79 1271.89 t 0 r /Helvetica findfont 62.4444 sf 0 0 m (12000) show NC gr 
 gsave  2268 1972 0 0 C 1981.79 1455.94 t 0 r /Helvetica findfont 62.4444 sf 0 0 m (14000) show NC gr 
 gsave  2268 1972 0 0 C 1981.79 1639.99 t 0 r /Helvetica findfont 62.4444 sf 0 0 m (16000) show NC gr  1 1 1 c black
 gsave  2268 1972 0 0 C 1423.07 1873.33 t 0 r /Helvetica findfont 85.4502 sf 0 0 m (=13 TeV \(50ns\)) show NC gr 
 gsave  2268 1972 0 0 C 1380.35 1873.33 t 0 r /Helvetica findfont 85.4502 sf 0 0 m (s) show NC gr  6 lw 1351 1923 m 10 -53 d s 0 lw 1361 1870 m 9 72 d s 1370 1942 m 53 X s 3 lw 1143 1019 m 425 X s 1568 1037 m 31 -18 d -31 -19 d f 1568 1037 m 31 -18 d
 -31 -19 d 37 Y cl s
 gsave  2268 1972 0 0 C 1140.43 982.677 t 0 r /Helvetica-Bold findfont 46.0116 sf 0 0 m (z\255axis \(along beam\)) show NC gr  1052 1471 m -420 Y s 1070 1051 m -18 -32 d -19 32 d f 1070 1051 m -18 -32 d -19 32 d 37 X cl s
 gsave  2268 1972 0 0 C 1031.98 1291.61 t 90 r /Symbol findfont 46.0116 sf 0 0 m (f) show NC gr 
 gsave  2268 1972 0 0 C 1031.98 1137.14 t 90 r /Helvetica-Bold findfont 46.0116 sf 0 0 m (global ) show NC gr 
 gsave  2268 1972 0 0 C 1104.28 1459.23 t 90 r /Helvetica-Bold findfont 46.0116 sf 0 0 m (0) show NC gr 
 gsave  2268 1972 0 0 C 1104.28 1094.42 t 90 r /Helvetica-Bold findfont 46.0116 sf 0 0 m (/2) show NC gr 
 gsave  2268 1972 0 0 C 1104.28 1068.13 t 90 r /Symbol findfont 46.0116 sf 0 0 m (p) show NC gr 
 gsave  2268 1972 0 0 C 230.058 1883.19 t 0 r /Helvetica-Bold findfont 92.0233 sf 0 0 m (CMS preliminary) show NC gr 
 gr  gr showpage
end
%%EOF
