%!PS-Adobe-2.0 EPSF-2.0
%%BoundingBox:  0 0 567 543
%%Title: /home/tav/cern/projects/PilotBlade/forApproval/5PBHitCluDx_344131844.eps: 6_0
%%Creator: ROOT Version 6.04/16
%%CreationDate: Thu May 11 14:40:30 2017
%%DocumentNeededResources: ProcSet (FontSetInit)
%%EndComments
%%BeginProlog
80 dict begin
/s {stroke} def /l {lineto} def /m {moveto} def /t {translate} def
/r {rotate} def /rl {roll}  def /R {repeat} def
/d {rlineto} def /rm {rmoveto} def /gr {grestore} def /f {eofill} def
/c {setrgbcolor} def /black {0 setgray} def /sd {setdash} def
/cl {closepath} def /sf {scalefont setfont} def /lw {setlinewidth} def
/box {m dup 0 exch d exch 0 d 0 exch neg d cl} def
/NC{systemdict begin initclip end}def/C{NC box clip newpath}def
/bl {box s} def /bf {gsave box gsave f grestore 1 lw [] 0 sd s grestore} def /Y { 0 exch d} def /X { 0 d} def 
/K {{pop pop 0 moveto} exch kshow} bind def
/ita {/ang 15 def gsave [1 0 ang dup sin exch cos div 1 0 0] concat} def 
/mp {newpath /y exch def /x exch def} def
/side {[w .77 mul w .23 mul] .385 w mul sd w 0 l currentpoint t -144 r} def
/mr {mp x y w2 0 360 arc} def /m24 {mr s} def /m20 {mr f} def
/mb {mp x y w2 add m w2 neg 0 d 0 w neg d w 0 d 0 w d cl} def
/mt {mp x y w2 add m w2 neg w neg d w 0 d cl} def
/m21 {mb f} def /m25 {mb s} def /m22 {mt f} def /m26{mt s} def
/m23 {mp x y w2 sub m w2 w d w neg 0 d cl f} def
/m27 {mp x y w2 add m w3 neg w2 neg d w3 w2 neg d w3 w2 d cl s} def
/m28 {mp x w2 sub y w2 sub w3 add m w3 0 d  0 w3 neg d w3 0 d 0 w3 d w3 0 d  0 w3 d w3 neg 0 d 0 w3 d w3 neg 0 d 0 w3 neg d w3 neg 0 d cl s } def
/m29 {mp gsave x w2 sub y w2 add w3 sub m currentpoint t 4 {side} repeat cl fill gr} def
/m30 {mp gsave x w2 sub y w2 add w3 sub m currentpoint t 4 {side} repeat cl s gr} def
/m31 {mp x y w2 sub m 0 w d x w2 sub y m w 0 d x w2 sub y w2 add m w w neg d x w2 sub y w2 sub m w w d s} def
/m32 {mp x y w2 sub m w2 w d w neg 0 d cl s} def
/m33 {mp x y w2 add m w3 neg w2 neg d w3 w2 neg d w3 w2 d cl f} def
/m34 {mp x w2 sub y w2 sub w3 add m w3 0 d  0 w3 neg d w3 0 d 0 w3 d w3 0 d  0 w3 d w3 neg 0 d 0 w3 d w3 neg 0 d 0 w3 neg d w3 neg 0 d cl f } def
/m2 {mp x y w2 sub m 0 w d x w2 sub y m w 0 d s} def
/m5 {mp x w2 sub y w2 sub m w w d x w2 sub y w2 add m w w neg d s} def
%%IncludeResource: ProcSet (FontSetInit)
%%IncludeResource: font Times-Roman
%%IncludeResource: font Times-Italic
%%IncludeResource: font Times-Bold
%%IncludeResource: font Times-BoldItalic
%%IncludeResource: font Helvetica
%%IncludeResource: font Helvetica-Oblique
%%IncludeResource: font Helvetica-Bold
%%IncludeResource: font Helvetica-BoldOblique
%%IncludeResource: font Courier
%%IncludeResource: font Courier-Oblique
%%IncludeResource: font Courier-Bold
%%IncludeResource: font Courier-BoldOblique
%%IncludeResource: font Symbol
%%IncludeResource: font ZapfDingbats
/reEncode {exch findfont dup length dict begin {1 index /FID eq  {pop pop} {def} ifelse } forall /Encoding exch def currentdict end dup /FontName get exch definefont pop } def [/Times-Bold /Times-Italic /Times-BoldItalic /Helvetica /Helvetica-Oblique
 /Helvetica-Bold /Helvetica-BoldOblique /Courier /Courier-Oblique /Courier-Bold /Courier-BoldOblique /Times-Roman /AvantGarde-Book /AvantGarde-BookOblique /AvantGarde-Demi /AvantGarde-DemiOblique /Bookman-Demi /Bookman-DemiItalic /Bookman-Light
 /Bookman-LightItalic /Helvetica-Narrow /Helvetica-Narrow-Bold /Helvetica-Narrow-BoldOblique /Helvetica-Narrow-Oblique /NewCenturySchlbk-Roman /NewCenturySchlbk-Bold /NewCenturySchlbk-BoldItalic /NewCenturySchlbk-Italic /Palatino-Bold
 /Palatino-BoldItalic /Palatino-Italic /Palatino-Roman ] {ISOLatin1Encoding reEncode } forall
%%EndProlog
%%BeginSetup
%%EndSetup
newpath  gsave  .25 .25 scale  gsave  0 0 t black[  ] 0 sd 3 lw 1 1 1 c 2268 2173 0 0 bf black 1 1 1 c 1814 1739 227 217 bf black 1814 1739 227 217 bl 1 1 1 c 1814 1739 227 217 bf black 1814 1739 227 217 bl 6 lw 1 1 1 c 0 1 1 c black 227 217 m 172 X
 2 Y 14 X -2 Y 4 X 2 Y 14 X -2 Y 4 X 2 Y 14 X -2 Y 5 X 7 Y 9 X 2 Y 4 X -4 Y 5 X 4 Y 4 X -2 Y 5 X 6 Y 4 X -8 Y 5 X -3 Y 4 X 3 Y 5 X -3 Y 4 X 11 Y 5 X -4 Y 5 X -4 Y 4 X 2 Y 5 X 4 Y 4 X 9 Y 5 X -11 Y 4 X 2 Y 5 X 16 Y 4 X -20 Y 5 X 13 Y 4 X -11 Y 9 X 4 Y
 5 X -2 Y 9 X 5 Y 5 X -3 Y 13 X 7 Y 5 X -11 Y 4 X 9 Y 5 X -2 Y 4 X -3 Y 5 X 3 Y 4 X 2 Y 5 X 6 Y 4 X -11 Y 5 X 5 Y 9 X -7 Y 5 X 5 Y 4 X -3 Y 5 X -2 Y 4 X 11 Y 5 X -6 Y 4 X 6 Y 5 X -4 Y 9 X 6 Y 4 X -11 Y 5 X 3 Y 4 X 2 Y 5 X 4 Y 5 X 2 Y 4 X -6 Y 5 X -2
 Y 4 X -3 Y 5 X 9 Y 9 X 13 Y 4 X -19 Y 5 X 4 Y 4 X -4 Y 5 X 4 Y 4 X 11 Y 5 X -7 Y 4 X -4 Y 5 X 9 Y 5 X -13 Y 4 X 2 Y 9 X 13 Y 5 X -4 Y 4 X -11 Y 5 X 11 Y 4 X -3 Y 5 X 5 Y 9 X -7 Y 4 X -6 Y 5 X -3 Y 5 X 11 Y 4 X -13 Y 5 X 16 Y 4 X -16 Y 5 X 7 Y 4 X 9
 Y 5 X -3 Y 4 X -11 Y 5 X 5 Y 4 X 9 Y 5 X -22 Y 4 X 13 Y 5 X 2 Y 4 X 7 Y 5 X -11 Y 5 X 11 Y 4 X -9 Y 5 X -5 Y 4 X 11 Y 5 X -4 Y 4 X -2 Y 5 X -2 Y 4 X 2 Y 5 X 13 Y 4 X -20 Y 5 X 5 Y 4 X 4 Y 14 X 2 Y 5 X 9 Y 4 X -13 Y 5 X -5 Y 4 X 11 Y 5 X -6 Y 4 X 6 Y
 5 X -6 Y 4 X 2 Y 5 X 15 Y 4 X 29 Y 5 X 29 Y 4 X 108 Y 5 X 193 Y 5 X 387 Y 4 X 273 Y 5 X 161 Y 4 X 194 Y 5 X -229 Y 4 X -535 Y 5 X -359 Y 4 X -176 Y 5 X -50 Y 4 X -22 Y 5 X -9 Y 4 X 13 Y 5 X -18 Y 5 X -6 Y 4 X 17 Y 5 X -13 Y 4 X 11 Y 5 X -11 Y 4 X 11
 Y 5 X -9 Y 9 X -8 Y 4 X 6 Y 5 X 7 Y 4 X 2 Y 9 X -7 Y 5 X -8 Y 5 X 6 Y 4 X -2 Y 5 X -2 Y 4 X 2 Y 5 X 4 Y 4 X -8 Y 5 X 2 Y 4 X 2 Y 5 X -9 Y 4 X 11 Y 5 X -11 Y 4 X -4 Y 5 X 4 Y 4 X 9 Y 5 X -9 Y 5 X -2 Y 4 X 22 Y 5 X -20 Y 4 X 2 Y 5 X 3 Y 4 X -7 Y 5 X 9
 Y 13 X -7 Y 5 X -2 Y 9 X 2 Y 5 X -2 Y 4 X 2 Y 5 X 7 Y 4 X -13 Y 5 X 15 Y 4 X -11 Y 5 X -2 Y 13 X 2 Y 9 X -2 Y 5 X 2 Y 4 X -2 Y 5 X 4 Y 5 X -2 Y 4 X -7 Y 5 X 7 Y 4 X -4 Y 5 X -5 Y 4 X 2 Y 5 X 5 Y 4 X -2 Y 5 X -5 Y 4 X 2 Y 9 X 5 Y 5 X -5 Y 5 X 3 Y 4 X
 2 Y 5 X 2 Y 4 X -2 Y 5 X -2 Y 4 X -5 Y 5 X 9 Y 4 X -2 Y 5 X 2 Y 4 X -7 Y 5 X 5 Y 4 X -5 Y 23 X -2 Y 9 X 2 Y 5 X -2 Y 544 X s 3 lw 227 217 m 1814 X s
 gsave  2268 2173 0 0 C 1850.58 79.6355 t 0 r /Helvetica findfont 72.0512 sf 0 0 m (x [cm]) show NC gr 
 gsave  2268 2173 0 0 C 1805.07 79.6355 t 0 r /Symbol findfont 72.0512 sf 0 0 m (D) show NC gr  227 269 m -52 Y s 302 243 m -26 Y s 378 243 m -26 Y s 454 243 m -26 Y s 529 269 m -52 Y s 605 243 m -26 Y s 680 243 m -26 Y s 756 243 m -26 Y s 831 269 m
 -52 Y s 907 243 m -26 Y s 983 243 m -26 Y s 1058 243 m -26 Y s 1134 269 m -52 Y s 1209 243 m -26 Y s 1285 243 m -26 Y s 1361 243 m -26 Y s 1436 269 m -52 Y s 1512 243 m -26 Y s 1587 243 m -26 Y s 1663 243 m -26 Y s 1739 269 m -52 Y s 1814 243 m -26
 Y s 1890 243 m -26 Y s 1965 243 m -26 Y s 2041 269 m -52 Y s 227 269 m -52 Y s 2041 269 m -52 Y s
 gsave  2268 2173 0 0 C 193.401 147.895 t 0 r /Helvetica findfont 72.0512 sf 0 0 m (0.6) show NC gr 
 gsave  2268 2173 0 0 C 151.687 147.895 t 0 r /Symbol findfont 72.0512 sf 0 0 m (-) show NC gr 
 gsave  2268 2173 0 0 C 496.774 147.895 t 0 r /Helvetica findfont 72.0512 sf 0 0 m (0.4) show NC gr 
 gsave  2268 2173 0 0 C 455.06 147.895 t 0 r /Symbol findfont 72.0512 sf 0 0 m (-) show NC gr 
 gsave  2268 2173 0 0 C 800.147 147.895 t 0 r /Helvetica findfont 72.0512 sf 0 0 m (0.2) show NC gr 
 gsave  2268 2173 0 0 C 758.434 147.895 t 0 r /Symbol findfont 72.0512 sf 0 0 m (-) show NC gr 
 gsave  2268 2173 0 0 C 1114.9 147.895 t 0 r /Helvetica findfont 72.0512 sf 0 0 m (0) show NC gr 
 gsave  2268 2173 0 0 C 1384.14 147.895 t 0 r /Helvetica findfont 72.0512 sf 0 0 m (0.2) show NC gr 
 gsave  2268 2173 0 0 C 1687.51 147.895 t 0 r /Helvetica findfont 72.0512 sf 0 0 m (0.4) show NC gr 
 gsave  2268 2173 0 0 C 1990.89 147.895 t 0 r /Helvetica findfont 72.0512 sf 0 0 m (0.6) show NC gr  227 217 m 1739 Y s
 gsave  2268 2173 0 0 C 125.142 1797.49 t 90 r /Helvetica findfont 72.0512 sf 0 0 m (Yield) show NC gr  281 217 m -54 X s 254 261 m -27 X s 254 305 m -27 X s 254 349 m -27 X s 254 393 m -27 X s 281 437 m -54 X s 254 481 m -27 X s 254 525 m -27 X s
 254 569 m -27 X s 254 613 m -27 X s 281 657 m -54 X s 254 701 m -27 X s 254 745 m -27 X s 254 789 m -27 X s 254 833 m -27 X s 281 877 m -54 X s 254 921 m -27 X s 254 965 m -27 X s 254 1009 m -27 X s 254 1053 m -27 X s 281 1097 m -54 X s 254 1141 m
 -27 X s 254 1185 m -27 X s 254 1229 m -27 X s 254 1273 m -27 X s 281 1317 m -54 X s 254 1362 m -27 X s 254 1406 m -27 X s 254 1450 m -27 X s 254 1494 m -27 X s 281 1538 m -54 X s 254 1582 m -27 X s 254 1626 m -27 X s 254 1670 m -27 X s 254 1714 m
 -27 X s 281 1758 m -54 X s 281 1758 m -54 X s 254 1802 m -27 X s 254 1846 m -27 X s 254 1890 m -27 X s 254 1934 m -27 X s
 gsave  2268 2173 0 0 C 174.44 193.401 t 0 r /Helvetica findfont 72.0512 sf 0 0 m (0) show NC gr 
 gsave  2268 2173 0 0 C 94.8042 413.346 t 0 r /Helvetica findfont 72.0512 sf 0 0 m (100) show NC gr 
 gsave  2268 2173 0 0 C 94.8042 633.292 t 0 r /Helvetica findfont 72.0512 sf 0 0 m (200) show NC gr 
 gsave  2268 2173 0 0 C 94.8042 853.238 t 0 r /Helvetica findfont 72.0512 sf 0 0 m (300) show NC gr 
 gsave  2268 2173 0 0 C 94.8042 1073.18 t 0 r /Helvetica findfont 72.0512 sf 0 0 m (400) show NC gr 
 gsave  2268 2173 0 0 C 94.8042 1293.13 t 0 r /Helvetica findfont 72.0512 sf 0 0 m (500) show NC gr 
 gsave  2268 2173 0 0 C 94.8042 1513.08 t 0 r /Helvetica findfont 72.0512 sf 0 0 m (600) show NC gr 
 gsave  2268 2173 0 0 C 94.8042 1733.02 t 0 r /Helvetica findfont 72.0512 sf 0 0 m (700) show NC gr 
 gsave  2268 2173 0 0 C 496.774 1979.51 t 0 r /Helvetica-Oblique findfont 79.6355 sf 0 0 m (Preliminary 2016) show NC gr 
 gsave  2268 2173 0 0 C 223.738 1979.51 t 0 r /Helvetica-Bold findfont 102.389 sf 0 0 m (CMS ) show NC gr  1 1 1 c black
 gsave  2268 2173 0 0 C 432.307 2085.69 t 0 r /Helvetica findfont 49.2982 sf 0 0 m (Expected hit to nearest cluster distance in BmI_D3_BLD2_PNL1) show NC gr  1 1 1 c black
 gsave  2268 2173 0 0 C 1448.61 1812.66 t 0 r /Helvetica findfont 79.6355 sf 0 0 m (Mean = \2550.058) show NC gr 
 gr  gr showpage
end
%%EOF
